# 1 "main.c"
# 1 "C:\\Users\\195286\\Desktop\\progra\\C\\coding4//"
# 1 "<built-in>"
# 1 "<command-line>"
# 1 "main.c"
# 1 "C:/TDM-GCC-64/x86_64-w64-mingw32/include/stdio.h" 1 3
# 9 "C:/TDM-GCC-64/x86_64-w64-mingw32/include/stdio.h" 3
# 1 "C:/TDM-GCC-64/x86_64-w64-mingw32/include/crtdefs.h" 1 3
# 10 "C:/TDM-GCC-64/x86_64-w64-mingw32/include/crtdefs.h" 3
# 1 "C:/TDM-GCC-64/x86_64-w64-mingw32/include/_mingw.h" 1 3
# 12 "C:/TDM-GCC-64/x86_64-w64-mingw32/include/_mingw.h" 3
# 1 "C:/TDM-GCC-64/x86_64-w64-mingw32/include/_mingw_mac.h" 1 3
# 46 "C:/TDM-GCC-64/x86_64-w64-mingw32/include/_mingw_mac.h" 3
             
# 55 "C:/TDM-GCC-64/x86_64-w64-mingw32/include/_mingw_mac.h" 3
             
# 13 "C:/TDM-GCC-64/x86_64-w64-mingw32/include/_mingw.h" 2 3
# 1 "C:/TDM-GCC-64/x86_64-w64-mingw32/include/_mingw_secapi.h" 1 3
# 14 "C:/TDM-GCC-64/x86_64-w64-mingw32/include/_mingw.h" 2 3
# 275 "C:/TDM-GCC-64/x86_64-w64-mingw32/include/_mingw.h" 3
# 1 "C:/TDM-GCC-64/x86_64-w64-mingw32/include/vadefs.h" 1 3
# 9 "C:/TDM-GCC-64/x86_64-w64-mingw32/include/vadefs.h" 3
# 1 "C:/TDM-GCC-64/x86_64-w64-mingw32/include/_mingw.h" 1 3
# 565 "C:/TDM-GCC-64/x86_64-w64-mingw32/include/_mingw.h" 3
# 1 "C:/TDM-GCC-64/x86_64-w64-mingw32/include/sdks/_mingw_directx.h" 1 3
# 566 "C:/TDM-GCC-64/x86_64-w64-mingw32/include/_mingw.h" 2 3
# 1 "C:/TDM-GCC-64/x86_64-w64-mingw32/include/sdks/_mingw_ddk.h" 1 3
# 567 "C:/TDM-GCC-64/x86_64-w64-mingw32/include/_mingw.h" 2 3
# 10 "C:/TDM-GCC-64/x86_64-w64-mingw32/include/vadefs.h" 2 3




#pragma pack(push,_CRT_PACKING)
# 24 "C:/TDM-GCC-64/x86_64-w64-mingw32/include/vadefs.h" 3
  
# 24 "C:/TDM-GCC-64/x86_64-w64-mingw32/include/vadefs.h" 3
 typedef __builtin_va_list __gnuc_va_list;






  typedef __gnuc_va_list va_list;
# 103 "C:/TDM-GCC-64/x86_64-w64-mingw32/include/vadefs.h" 3
#pragma pack(pop)
# 276 "C:/TDM-GCC-64/x86_64-w64-mingw32/include/_mingw.h" 2 3
# 539 "C:/TDM-GCC-64/x86_64-w64-mingw32/include/_mingw.h" 3
void __attribute__((__cdecl__)) __debugbreak(void);
extern __inline__ __attribute__((__always_inline__,__gnu_inline__)) void __attribute__((__cdecl__)) __debugbreak(void)
{
  __asm__ __volatile__("int {$}3":);
}




const char *__mingw_get_crt_info (void);
# 11 "C:/TDM-GCC-64/x86_64-w64-mingw32/include/crtdefs.h" 2 3




#pragma pack(push,_CRT_PACKING)
# 35 "C:/TDM-GCC-64/x86_64-w64-mingw32/include/crtdefs.h" 3
__extension__ typedef unsigned long long size_t;
# 45 "C:/TDM-GCC-64/x86_64-w64-mingw32/include/crtdefs.h" 3
__extension__ typedef long long ssize_t;






typedef size_t rsize_t;
# 62 "C:/TDM-GCC-64/x86_64-w64-mingw32/include/crtdefs.h" 3
__extension__ typedef long long intptr_t;
# 75 "C:/TDM-GCC-64/x86_64-w64-mingw32/include/crtdefs.h" 3
__extension__ typedef unsigned long long uintptr_t;
# 88 "C:/TDM-GCC-64/x86_64-w64-mingw32/include/crtdefs.h" 3
__extension__ typedef long long ptrdiff_t;
# 98 "C:/TDM-GCC-64/x86_64-w64-mingw32/include/crtdefs.h" 3
typedef unsigned short wchar_t;







typedef unsigned short wint_t;
typedef unsigned short wctype_t;





typedef int errno_t;




typedef long __time32_t;




__extension__ typedef long long __time64_t;
# 138 "C:/TDM-GCC-64/x86_64-w64-mingw32/include/crtdefs.h" 3
typedef __time64_t time_t;
# 422 "C:/TDM-GCC-64/x86_64-w64-mingw32/include/crtdefs.h" 3
struct threadlocaleinfostruct;
struct threadmbcinfostruct;
typedef struct threadlocaleinfostruct *pthreadlocinfo;
typedef struct threadmbcinfostruct *pthreadmbcinfo;
struct __lc_time_data;

typedef struct localeinfo_struct {
  pthreadlocinfo locinfo;
  pthreadmbcinfo mbcinfo;
} _locale_tstruct,*_locale_t;



typedef struct tagLC_ID {
  unsigned short wLanguage;
  unsigned short wCountry;
  unsigned short wCodePage;
} LC_ID,*LPLC_ID;




typedef struct threadlocaleinfostruct {
  int refcount;
  unsigned int lc_codepage;
  unsigned int lc_collate_cp;
  unsigned long lc_handle[6];
  LC_ID lc_id[6];
  struct {
    char *locale;
    wchar_t *wlocale;
    int *refcount;
    int *wrefcount;
  } lc_category[6];
  int lc_clike;
  int mb_cur_max;
  int *lconv_intl_refcount;
  int *lconv_num_refcount;
  int *lconv_mon_refcount;
  struct lconv *lconv;
  int *ctype1_refcount;
  unsigned short *ctype1;
  const unsigned short *pctype;
  const unsigned char *pclmap;
  const unsigned char *pcumap;
  struct __lc_time_data *lc_time_curr;
} threadlocinfo;







#pragma pack(pop)
# 10 "C:/TDM-GCC-64/x86_64-w64-mingw32/include/stdio.h" 2 3

# 1 "C:/TDM-GCC-64/x86_64-w64-mingw32/include/_mingw_print_push.h" 1 3
# 12 "C:/TDM-GCC-64/x86_64-w64-mingw32/include/stdio.h" 2 3

#pragma pack(push,_CRT_PACKING)
# 26 "C:/TDM-GCC-64/x86_64-w64-mingw32/include/stdio.h" 3
  struct _iobuf {
    char *_ptr;
    int _cnt;
    char *_base;
    int _flag;
    int _file;
    int _charbuf;
    int _bufsiz;
    char *_tmpfname;
  };
  typedef struct _iobuf FILE;
# 80 "C:/TDM-GCC-64/x86_64-w64-mingw32/include/stdio.h" 3
# 1 "C:/TDM-GCC-64/x86_64-w64-mingw32/include/_mingw_off_t.h" 1 3




  typedef long _off_t;

  typedef long off32_t;





  __extension__ typedef long long _off64_t;

  __extension__ typedef long long off64_t;
# 26 "C:/TDM-GCC-64/x86_64-w64-mingw32/include/_mingw_off_t.h" 3
typedef off32_t off_t;
# 81 "C:/TDM-GCC-64/x86_64-w64-mingw32/include/stdio.h" 2 3



  __attribute__ ((__dllimport__)) FILE *__attribute__((__cdecl__)) __iob_func(void);
# 103 "C:/TDM-GCC-64/x86_64-w64-mingw32/include/stdio.h" 3
  __extension__ typedef long long fpos_t;
# 139 "C:/TDM-GCC-64/x86_64-w64-mingw32/include/stdio.h" 3
extern
  __attribute__((__format__ (gnu_scanf, 2, 3))) __attribute__ ((__nonnull__ (2)))
  int __attribute__((__cdecl__)) __mingw_sscanf(const char * __restrict__ _Src,const char * __restrict__ _Format,...);
extern
  __attribute__((__format__ (gnu_scanf, 2, 0))) __attribute__ ((__nonnull__ (2)))
  int __attribute__((__cdecl__)) __mingw_vsscanf (const char * __restrict__ _Str,const char * __restrict__ Format,va_list argp);
extern
  __attribute__((__format__ (gnu_scanf, 1, 2))) __attribute__ ((__nonnull__ (1)))
  int __attribute__((__cdecl__)) __mingw_scanf(const char * __restrict__ _Format,...);
extern
  __attribute__((__format__ (gnu_scanf, 1, 0))) __attribute__ ((__nonnull__ (1)))
  int __attribute__((__cdecl__)) __mingw_vscanf(const char * __restrict__ Format, va_list argp);
extern
  __attribute__((__format__ (gnu_scanf, 2, 3))) __attribute__ ((__nonnull__ (2)))
  int __attribute__((__cdecl__)) __mingw_fscanf(FILE * __restrict__ _File,const char * __restrict__ _Format,...);
extern
  __attribute__((__format__ (gnu_scanf, 2, 0))) __attribute__ ((__nonnull__ (2)))
  int __attribute__((__cdecl__)) __mingw_vfscanf (FILE * __restrict__ fp, const char * __restrict__ Format,va_list argp);

extern
  __attribute__((__format__ (gnu_printf, 3, 0))) __attribute__ ((__nonnull__ (3)))
  int __attribute__((__cdecl__)) __mingw_vsnprintf(char * __restrict__ _DstBuf,size_t _MaxCount,const char * __restrict__ _Format,
                               va_list _ArgList);
extern
  __attribute__((__format__ (gnu_printf, 3, 4))) __attribute__ ((__nonnull__ (3)))
  int __attribute__((__cdecl__)) __mingw_snprintf(char * __restrict__ s, size_t n, const char * __restrict__ format, ...);
extern
  __attribute__((__format__ (gnu_printf, 1, 2))) __attribute__ ((__nonnull__ (1)))
  int __attribute__((__cdecl__)) __mingw_printf(const char * __restrict__ , ... ) __attribute__ ((__nothrow__));
extern
  __attribute__((__format__ (gnu_printf, 1, 0))) __attribute__ ((__nonnull__ (1)))
  int __attribute__((__cdecl__)) __mingw_vprintf (const char * __restrict__ , va_list) __attribute__ ((__nothrow__));
extern
  __attribute__((__format__ (gnu_printf, 2, 3))) __attribute__ ((__nonnull__ (2)))
  int __attribute__((__cdecl__)) __mingw_fprintf (FILE * __restrict__ , const char * __restrict__ , ...) __attribute__ ((__nothrow__));
extern
  __attribute__((__format__ (gnu_printf, 2, 0))) __attribute__ ((__nonnull__ (2)))
  int __attribute__((__cdecl__)) __mingw_vfprintf (FILE * __restrict__ , const char * __restrict__ , va_list) __attribute__ ((__nothrow__));
extern
  __attribute__((__format__ (gnu_printf, 2, 3))) __attribute__ ((__nonnull__ (2)))
  int __attribute__((__cdecl__)) __mingw_sprintf (char * __restrict__ , const char * __restrict__ , ...) __attribute__ ((__nothrow__));
extern
  __attribute__((__format__ (gnu_printf, 2, 0))) __attribute__ ((__nonnull__ (2)))
  int __attribute__((__cdecl__)) __mingw_vsprintf (char * __restrict__ , const char * __restrict__ , va_list) __attribute__ ((__nothrow__));
extern
  __attribute__((__format__ (gnu_printf, 2, 3))) __attribute__((nonnull (1,2)))
  int __attribute__((__cdecl__)) __mingw_asprintf(char ** __restrict__ , const char * __restrict__ , ...) __attribute__ ((__nothrow__));
extern
  __attribute__((__format__ (gnu_printf, 2, 0))) __attribute__((nonnull (1,2)))
  int __attribute__((__cdecl__)) __mingw_vasprintf(char ** __restrict__ , const char * __restrict__ , va_list) __attribute__ ((__nothrow__));
# 377 "C:/TDM-GCC-64/x86_64-w64-mingw32/include/stdio.h" 3
  int __attribute__((__cdecl__)) fprintf(FILE * __restrict__ _File,const char * __restrict__ _Format,...);
  int __attribute__((__cdecl__)) printf(const char * __restrict__ _Format,...);
  int __attribute__((__cdecl__)) sprintf(char * __restrict__ _Dest,const char * __restrict__ _Format,...) ;

  int __attribute__((__cdecl__)) vfprintf(FILE * __restrict__ _File,const char * __restrict__ _Format,va_list _ArgList);
  int __attribute__((__cdecl__)) vprintf(const char * __restrict__ _Format,va_list _ArgList);
  int __attribute__((__cdecl__)) vsprintf(char * __restrict__ _Dest,const char * __restrict__ _Format,va_list _Args) ;

  int __attribute__((__cdecl__)) fscanf(FILE * __restrict__ _File,const char * __restrict__ _Format,...) ;
  int __attribute__((__cdecl__)) scanf(const char * __restrict__ _Format,...) ;
  int __attribute__((__cdecl__)) sscanf(const char * __restrict__ _Src,const char * __restrict__ _Format,...) ;





  int __attribute__((__cdecl__)) __ms_vscanf(const char * __restrict__ Format, va_list argp);
  int __attribute__((__cdecl__)) __ms_vfscanf (FILE * __restrict__ fp, const char * __restrict__ Format,va_list argp);
  int __attribute__((__cdecl__)) __ms_vsscanf (const char * __restrict__ _Str,const char * __restrict__ Format,va_list argp);

  static __attribute__ ((__unused__)) __inline__ __attribute__((__cdecl__))
  __attribute__ ((__nonnull__ (2)))
  int vfscanf (FILE *__stream, const char *__format, __builtin_va_list __local_argv)
  {
    return __ms_vfscanf (__stream, __format, __local_argv);
  }

  static __attribute__ ((__unused__)) __inline__ __attribute__((__cdecl__))
  __attribute__ ((__nonnull__ (2)))
  int vsscanf (const char * __restrict__ __source, const char * __restrict__ __format, __builtin_va_list __local_argv)
  {
    return __ms_vsscanf( __source, __format, __local_argv );
  }
  static __attribute__ ((__unused__)) __inline__ __attribute__((__cdecl__))
  __attribute__ ((__nonnull__ (1)))
  int vscanf(const char *__format, __builtin_va_list __local_argv)
  {
    return __ms_vscanf (__format, __local_argv);
  }




  __attribute__ ((__dllimport__)) int __attribute__((__cdecl__)) _filbuf(FILE *_File);
  __attribute__ ((__dllimport__)) int __attribute__((__cdecl__)) _flsbuf(int _Ch,FILE *_File);



  __attribute__ ((__dllimport__)) FILE *__attribute__((__cdecl__)) _fsopen(const char *_Filename,const char *_Mode,int _ShFlag);

  void __attribute__((__cdecl__)) clearerr(FILE *_File);
  int __attribute__((__cdecl__)) fclose(FILE *_File);
  __attribute__ ((__dllimport__)) int __attribute__((__cdecl__)) _fcloseall(void);



  __attribute__ ((__dllimport__)) FILE *__attribute__((__cdecl__)) _fdopen(int _FileHandle,const char *_Mode);

  int __attribute__((__cdecl__)) feof(FILE *_File);
  int __attribute__((__cdecl__)) ferror(FILE *_File);
  int __attribute__((__cdecl__)) fflush(FILE *_File);
  int __attribute__((__cdecl__)) fgetc(FILE *_File);
  __attribute__ ((__dllimport__)) int __attribute__((__cdecl__)) _fgetchar(void);
  int __attribute__((__cdecl__)) fgetpos(FILE * __restrict__ _File ,fpos_t * __restrict__ _Pos);
  int __attribute__((__cdecl__)) fgetpos64(FILE * __restrict__ _File ,fpos_t * __restrict__ _Pos);
  char *__attribute__((__cdecl__)) fgets(char * __restrict__ _Buf,int _MaxCount,FILE * __restrict__ _File);
  __attribute__ ((__dllimport__)) int __attribute__((__cdecl__)) _fileno(FILE *_File);



  __attribute__ ((__dllimport__)) char *__attribute__((__cdecl__)) _tempnam(const char *_DirName,const char *_FilePrefix);
  __attribute__ ((__dllimport__)) int __attribute__((__cdecl__)) _flushall(void);
  FILE *__attribute__((__cdecl__)) fopen(const char * __restrict__ _Filename,const char * __restrict__ _Mode) ;
  FILE *fopen64(const char * __restrict__ filename,const char * __restrict__ mode);
  int __attribute__((__cdecl__)) fputc(int _Ch,FILE *_File);
  __attribute__ ((__dllimport__)) int __attribute__((__cdecl__)) _fputchar(int _Ch);
  int __attribute__((__cdecl__)) fputs(const char * __restrict__ _Str,FILE * __restrict__ _File);
  size_t __attribute__((__cdecl__)) fread(void * __restrict__ _DstBuf,size_t _ElementSize,size_t _Count,FILE * __restrict__ _File);
  FILE *__attribute__((__cdecl__)) freopen(const char * __restrict__ _Filename,const char * __restrict__ _Mode,FILE * __restrict__ _File) ;
  int __attribute__((__cdecl__)) fsetpos(FILE *_File,const fpos_t *_Pos);
  int __attribute__((__cdecl__)) fsetpos64(FILE *_File,const fpos_t *_Pos);
  int __attribute__((__cdecl__)) fseek(FILE *_File,long _Offset,int _Origin);



  int fseeko64(FILE* stream, _off64_t offset, int whence);
  int fseeko(FILE* stream, _off_t offset, int whence);
# 472 "C:/TDM-GCC-64/x86_64-w64-mingw32/include/stdio.h" 3
  long __attribute__((__cdecl__)) ftell(FILE *_File);

  _off_t ftello(FILE * stream);
  _off64_t ftello64(FILE * stream);
# 484 "C:/TDM-GCC-64/x86_64-w64-mingw32/include/stdio.h" 3
  __extension__ int __attribute__((__cdecl__)) _fseeki64(FILE *_File,long long _Offset,int _Origin);
  __extension__ long long __attribute__((__cdecl__)) _ftelli64(FILE *_File);
  size_t __attribute__((__cdecl__)) fwrite(const void * __restrict__ _Str,size_t _Size,size_t _Count,FILE * __restrict__ _File);
  int __attribute__((__cdecl__)) getc(FILE *_File);
  int __attribute__((__cdecl__)) getchar(void);
  __attribute__ ((__dllimport__)) int __attribute__((__cdecl__)) _getmaxstdio(void);
  char *__attribute__((__cdecl__)) gets(char *_Buffer) ;
  int __attribute__((__cdecl__)) _getw(FILE *_File);


  void __attribute__((__cdecl__)) perror(const char *_ErrMsg);

  __attribute__ ((__dllimport__)) int __attribute__((__cdecl__)) _pclose(FILE *_File);
  __attribute__ ((__dllimport__)) FILE *__attribute__((__cdecl__)) _popen(const char *_Command,const char *_Mode);




  int __attribute__((__cdecl__)) putc(int _Ch,FILE *_File);
  int __attribute__((__cdecl__)) putchar(int _Ch);
  int __attribute__((__cdecl__)) puts(const char *_Str);
  __attribute__ ((__dllimport__)) int __attribute__((__cdecl__)) _putw(int _Word,FILE *_File);


  int __attribute__((__cdecl__)) remove(const char *_Filename);
  int __attribute__((__cdecl__)) rename(const char *_OldFilename,const char *_NewFilename);
  __attribute__ ((__dllimport__)) int __attribute__((__cdecl__)) _unlink(const char *_Filename);

  int __attribute__((__cdecl__)) unlink(const char *_Filename) ;


  void __attribute__((__cdecl__)) rewind(FILE *_File);
  __attribute__ ((__dllimport__)) int __attribute__((__cdecl__)) _rmtmp(void);
  void __attribute__((__cdecl__)) setbuf(FILE * __restrict__ _File,char * __restrict__ _Buffer) ;
  __attribute__ ((__dllimport__)) int __attribute__((__cdecl__)) _setmaxstdio(int _Max);
  __attribute__ ((__dllimport__)) unsigned int __attribute__((__cdecl__)) _set_output_format(unsigned int _Format);
  __attribute__ ((__dllimport__)) unsigned int __attribute__((__cdecl__)) _get_output_format(void);
  int __attribute__((__cdecl__)) setvbuf(FILE * __restrict__ _File,char * __restrict__ _Buf,int _Mode,size_t _Size);
  __attribute__ ((__dllimport__)) int __attribute__((__cdecl__)) _scprintf(const char * __restrict__ _Format,...);
  __attribute__ ((__dllimport__)) int __attribute__((__cdecl__)) _snscanf(const char * __restrict__ _Src,size_t _MaxCount,const char * __restrict__ _Format,...) ;
  FILE *__attribute__((__cdecl__)) tmpfile(void) ;
  char *__attribute__((__cdecl__)) tmpnam(char *_Buffer);
  int __attribute__((__cdecl__)) ungetc(int _Ch,FILE *_File);

  __attribute__ ((__dllimport__)) int __attribute__((__cdecl__)) _snprintf(char * __restrict__ _Dest,size_t _Count,const char * __restrict__ _Format,...) ;
  __attribute__ ((__dllimport__)) int __attribute__((__cdecl__)) _vsnprintf(char * __restrict__ _Dest,size_t _Count,const char * __restrict__ _Format,va_list _Args) ;




       
       


  int __attribute__((__cdecl__)) __ms_vsnprintf(char * __restrict__ d,size_t n,const char * __restrict__ format,va_list arg)
    ;

  static __attribute__ ((__unused__)) __inline__ __attribute__((__cdecl__))
  __attribute__ ((__nonnull__ (3)))
  int vsnprintf (char * __restrict__ __stream, size_t __n, const char * __restrict__ __format, va_list __local_argv)
  {
    return __ms_vsnprintf (__stream, __n, __format, __local_argv);
  }

  int __attribute__((__cdecl__)) __ms_snprintf(char * __restrict__ s, size_t n, const char * __restrict__ format, ...);


static __attribute__ ((__unused__)) __inline__ __attribute__((__cdecl__))
__attribute__ ((__nonnull__ (3)))
int snprintf (char * __restrict__ __stream, size_t __n, const char * __restrict__ __format, ...)
{
  register int __retval;
  __builtin_va_list __local_argv; __builtin_va_start( __local_argv, __format );
  __retval = __ms_vsnprintf (__stream, __n, __format, __local_argv);
  __builtin_va_end( __local_argv );
  return __retval;
}


       
       


  __attribute__ ((__dllimport__)) int __attribute__((__cdecl__)) _vscprintf(const char * __restrict__ _Format,va_list _ArgList);
  __attribute__ ((__dllimport__)) int __attribute__((__cdecl__)) _set_printf_count_output(int _Value);
  __attribute__ ((__dllimport__)) int __attribute__((__cdecl__)) _get_printf_count_output(void);




                                                     __attribute__ ((__nonnull__ (2)))
  int __attribute__((__cdecl__)) __mingw_swscanf(const wchar_t * __restrict__ _Src,const wchar_t * __restrict__ _Format,...);
                                                     __attribute__ ((__nonnull__ (2)))
  int __attribute__((__cdecl__)) __mingw_vswscanf (const wchar_t * __restrict__ _Str,const wchar_t * __restrict__ Format,va_list argp);
                                                     __attribute__ ((__nonnull__ (1)))
  int __attribute__((__cdecl__)) __mingw_wscanf(const wchar_t * __restrict__ _Format,...);
                                                     __attribute__ ((__nonnull__ (1)))
  int __attribute__((__cdecl__)) __mingw_vwscanf(const wchar_t * __restrict__ Format, va_list argp);
                                                     __attribute__ ((__nonnull__ (2)))
  int __attribute__((__cdecl__)) __mingw_fwscanf(FILE * __restrict__ _File,const wchar_t * __restrict__ _Format,...);
                                                     __attribute__ ((__nonnull__ (2)))
  int __attribute__((__cdecl__)) __mingw_vfwscanf (FILE * __restrict__ fp, const wchar_t * __restrict__ Format,va_list argp);

                                                      __attribute__ ((__nonnull__ (2)))
  int __attribute__((__cdecl__)) __mingw_fwprintf(FILE * __restrict__ _File,const wchar_t * __restrict__ _Format,...);
                                                      __attribute__ ((__nonnull__ (1)))
  int __attribute__((__cdecl__)) __mingw_wprintf(const wchar_t * __restrict__ _Format,...);
                                                     __attribute__ ((__nonnull__ (2)))
  int __attribute__((__cdecl__)) __mingw_vfwprintf(FILE * __restrict__ _File,const wchar_t * __restrict__ _Format,va_list _ArgList);
                                                     __attribute__ ((__nonnull__ (1)))
  int __attribute__((__cdecl__)) __mingw_vwprintf(const wchar_t * __restrict__ _Format,va_list _ArgList);
                                                      __attribute__ ((__nonnull__ (3)))
  int __attribute__((__cdecl__)) __mingw_snwprintf (wchar_t * __restrict__ s, size_t n, const wchar_t * __restrict__ format, ...);
                                                      __attribute__ ((__nonnull__ (3)))
  int __attribute__((__cdecl__)) __mingw_vsnwprintf (wchar_t * __restrict__ , size_t, const wchar_t * __restrict__ , va_list);
                                                      __attribute__ ((__nonnull__ (2)))
  int __attribute__((__cdecl__)) __mingw_swprintf(wchar_t * __restrict__ , const wchar_t * __restrict__ , ...);
                                                      __attribute__ ((__nonnull__ (2)))
  int __attribute__((__cdecl__)) __mingw_vswprintf(wchar_t * __restrict__ , const wchar_t * __restrict__ ,va_list);
# 725 "C:/TDM-GCC-64/x86_64-w64-mingw32/include/stdio.h" 3
  int __attribute__((__cdecl__)) fwscanf(FILE * __restrict__ _File,const wchar_t * __restrict__ _Format,...) ;
  int __attribute__((__cdecl__)) swscanf(const wchar_t * __restrict__ _Src,const wchar_t * __restrict__ _Format,...) ;
  int __attribute__((__cdecl__)) wscanf(const wchar_t * __restrict__ _Format,...) ;

  int __attribute__((__cdecl__)) __ms_vwscanf (const wchar_t * __restrict__ , va_list);
  int __attribute__((__cdecl__)) __ms_vfwscanf (FILE * __restrict__ ,const wchar_t * __restrict__ ,va_list);
  int __attribute__((__cdecl__)) __ms_vswscanf (const wchar_t * __restrict__ ,const wchar_t * __restrict__ ,va_list);

  static __attribute__ ((__unused__)) __inline__ __attribute__((__cdecl__))
  __attribute__ ((__nonnull__ (2)))
  int vfwscanf (FILE *__stream, const wchar_t *__format, __builtin_va_list __local_argv)
  {
    return __ms_vfwscanf (__stream, __format, __local_argv);
  }

  static __attribute__ ((__unused__)) __inline__ __attribute__((__cdecl__))
  __attribute__ ((__nonnull__ (2)))
  int vswscanf (const wchar_t * __restrict__ __source, const wchar_t * __restrict__ __format, __builtin_va_list __local_argv)
  {
    return __ms_vswscanf( __source, __format, __local_argv );
  }
  static __attribute__ ((__unused__)) __inline__ __attribute__((__cdecl__))
  __attribute__ ((__nonnull__ (1)))
  int vwscanf(const wchar_t *__format, __builtin_va_list __local_argv)
  {
    return __ms_vwscanf (__format, __local_argv);
  }



  int __attribute__((__cdecl__)) fwprintf(FILE * __restrict__ _File,const wchar_t * __restrict__ _Format,...);
  int __attribute__((__cdecl__)) wprintf(const wchar_t * __restrict__ _Format,...);
  int __attribute__((__cdecl__)) vfwprintf(FILE * __restrict__ _File,const wchar_t * __restrict__ _Format,va_list _ArgList);
  int __attribute__((__cdecl__)) vwprintf(const wchar_t * __restrict__ _Format,va_list _ArgList);
# 768 "C:/TDM-GCC-64/x86_64-w64-mingw32/include/stdio.h" 3
  __attribute__ ((__dllimport__)) FILE *__attribute__((__cdecl__)) _wfsopen(const wchar_t *_Filename,const wchar_t *_Mode,int _ShFlag);


  wint_t __attribute__((__cdecl__)) fgetwc(FILE *_File);
  __attribute__ ((__dllimport__)) wint_t __attribute__((__cdecl__)) _fgetwchar(void);
  wint_t __attribute__((__cdecl__)) fputwc(wchar_t _Ch,FILE *_File);
  __attribute__ ((__dllimport__)) wint_t __attribute__((__cdecl__)) _fputwchar(wchar_t _Ch);
  wint_t __attribute__((__cdecl__)) getwc(FILE *_File);
  wint_t __attribute__((__cdecl__)) getwchar(void);
  wint_t __attribute__((__cdecl__)) putwc(wchar_t _Ch,FILE *_File);
  wint_t __attribute__((__cdecl__)) putwchar(wchar_t _Ch);
  wint_t __attribute__((__cdecl__)) ungetwc(wint_t _Ch,FILE *_File);
  wchar_t *__attribute__((__cdecl__)) fgetws(wchar_t * __restrict__ _Dst,int _SizeInWords,FILE * __restrict__ _File);
  int __attribute__((__cdecl__)) fputws(const wchar_t * __restrict__ _Str,FILE * __restrict__ _File);
  __attribute__ ((__dllimport__)) wchar_t *__attribute__((__cdecl__)) _getws(wchar_t *_String) ;
  __attribute__ ((__dllimport__)) int __attribute__((__cdecl__)) _putws(const wchar_t *_Str);

  __attribute__ ((__dllimport__)) int __attribute__((__cdecl__)) _scwprintf(const wchar_t * __restrict__ _Format,...);
  __attribute__ ((__dllimport__)) int __attribute__((__cdecl__)) _swprintf_c(wchar_t * __restrict__ _DstBuf,size_t _SizeInWords,const wchar_t * __restrict__ _Format,...);
  __attribute__ ((__dllimport__)) int __attribute__((__cdecl__)) _vswprintf_c(wchar_t * __restrict__ _DstBuf,size_t _SizeInWords,const wchar_t * __restrict__ _Format,va_list _ArgList);
  __attribute__ ((__dllimport__)) int __attribute__((__cdecl__)) _snwprintf(wchar_t * __restrict__ _Dest,size_t _Count,const wchar_t * __restrict__ _Format,...) ;
  __attribute__ ((__dllimport__)) int __attribute__((__cdecl__)) _vsnwprintf(wchar_t * __restrict__ _Dest,size_t _Count,const wchar_t * __restrict__ _Format,va_list _Args) ;




       
       


  int __attribute__((__cdecl__)) __ms_snwprintf (wchar_t * __restrict__ s, size_t n, const wchar_t * __restrict__ format, ...);
  int __attribute__((__cdecl__)) __ms_vsnwprintf (wchar_t * __restrict__ , size_t, const wchar_t * __restrict__ , va_list);
  static __attribute__ ((__unused__)) __inline__ __attribute__((__cdecl__))
  int snwprintf (wchar_t * __restrict__ s, size_t n, const wchar_t * __restrict__ format, ...)
  {
    int r;
    va_list argp;
    __builtin_va_start (argp, format);
    r = _vsnwprintf (s, n, format, argp);
    __builtin_va_end (argp);
    return r;
  }
  static __attribute__ ((__unused__)) __inline__ __attribute__((__cdecl__))
  int __attribute__((__cdecl__)) vsnwprintf (wchar_t * __restrict__ s, size_t n, const wchar_t * __restrict__ format, va_list arg)
  {
    return _vsnwprintf(s,n,format,arg);
  }
       
       



  __attribute__ ((__dllimport__)) int __attribute__((__cdecl__)) _swprintf(wchar_t * __restrict__ _Dest,const wchar_t * __restrict__ _Format,...);
  __attribute__ ((__dllimport__)) int __attribute__((__cdecl__)) _vswprintf(wchar_t * __restrict__ _Dest,const wchar_t * __restrict__ _Format,va_list _Args);


# 1 "C:/TDM-GCC-64/x86_64-w64-mingw32/include/swprintf.inl" 1 3
# 21 "C:/TDM-GCC-64/x86_64-w64-mingw32/include/swprintf.inl" 3
static __attribute__ ((__unused__)) __inline__ __attribute__((__cdecl__))
                                                      __attribute__ ((__nonnull__ (3)))
int vswprintf (wchar_t *__stream, size_t __count, const wchar_t *__format, __builtin_va_list __local_argv)
{
  return vsnwprintf( __stream, __count, __format, __local_argv );
}

static __attribute__ ((__unused__)) __inline__ __attribute__((__cdecl__))
                                                      __attribute__ ((__nonnull__ (3)))
int swprintf (wchar_t *__stream, size_t __count, const wchar_t *__format, ...)
{
  register int __retval;
  __builtin_va_list __local_argv;

  __builtin_va_start( __local_argv, __format );
  __retval = vswprintf( __stream, __count, __format, __local_argv );
  __builtin_va_end( __local_argv );
  return __retval;
}
# 825 "C:/TDM-GCC-64/x86_64-w64-mingw32/include/stdio.h" 2 3
# 834 "C:/TDM-GCC-64/x86_64-w64-mingw32/include/stdio.h" 3
  __attribute__ ((__dllimport__)) wchar_t *__attribute__((__cdecl__)) _wtempnam(const wchar_t *_Directory,const wchar_t *_FilePrefix);
  __attribute__ ((__dllimport__)) int __attribute__((__cdecl__)) _vscwprintf(const wchar_t * __restrict__ _Format,va_list _ArgList);
  __attribute__ ((__dllimport__)) int __attribute__((__cdecl__)) _snwscanf(const wchar_t * __restrict__ _Src,size_t _MaxCount,const wchar_t * __restrict__ _Format,...);
  __attribute__ ((__dllimport__)) FILE *__attribute__((__cdecl__)) _wfdopen(int _FileHandle ,const wchar_t *_Mode);
  __attribute__ ((__dllimport__)) FILE *__attribute__((__cdecl__)) _wfopen(const wchar_t * __restrict__ _Filename,const wchar_t *__restrict__ _Mode) ;
  __attribute__ ((__dllimport__)) FILE *__attribute__((__cdecl__)) _wfreopen(const wchar_t * __restrict__ _Filename,const wchar_t * __restrict__ _Mode,FILE * __restrict__ _OldFile) ;



  __attribute__ ((__dllimport__)) void __attribute__((__cdecl__)) _wperror(const wchar_t *_ErrMsg);

  __attribute__ ((__dllimport__)) FILE *__attribute__((__cdecl__)) _wpopen(const wchar_t *_Command,const wchar_t *_Mode);




  __attribute__ ((__dllimport__)) int __attribute__((__cdecl__)) _wremove(const wchar_t *_Filename);
  __attribute__ ((__dllimport__)) wchar_t *__attribute__((__cdecl__)) _wtmpnam(wchar_t *_Buffer);
  __attribute__ ((__dllimport__)) wint_t __attribute__((__cdecl__)) _fgetwc_nolock(FILE *_File);
  __attribute__ ((__dllimport__)) wint_t __attribute__((__cdecl__)) _fputwc_nolock(wchar_t _Ch,FILE *_File);
  __attribute__ ((__dllimport__)) wint_t __attribute__((__cdecl__)) _ungetwc_nolock(wint_t _Ch,FILE *_File);
# 884 "C:/TDM-GCC-64/x86_64-w64-mingw32/include/stdio.h" 3
  __attribute__ ((__dllimport__)) void __attribute__((__cdecl__)) _lock_file(FILE *_File);
  __attribute__ ((__dllimport__)) void __attribute__((__cdecl__)) _unlock_file(FILE *_File);
  __attribute__ ((__dllimport__)) int __attribute__((__cdecl__)) _fclose_nolock(FILE *_File);
  __attribute__ ((__dllimport__)) int __attribute__((__cdecl__)) _fflush_nolock(FILE *_File);
  __attribute__ ((__dllimport__)) size_t __attribute__((__cdecl__)) _fread_nolock(void * __restrict__ _DstBuf,size_t _ElementSize,size_t _Count,FILE * __restrict__ _File);
  __attribute__ ((__dllimport__)) int __attribute__((__cdecl__)) _fseek_nolock(FILE *_File,long _Offset,int _Origin);
  __attribute__ ((__dllimport__)) long __attribute__((__cdecl__)) _ftell_nolock(FILE *_File);
  __extension__ __attribute__ ((__dllimport__)) int __attribute__((__cdecl__)) _fseeki64_nolock(FILE *_File,long long _Offset,int _Origin);
  __extension__ __attribute__ ((__dllimport__)) long long __attribute__((__cdecl__)) _ftelli64_nolock(FILE *_File);
  __attribute__ ((__dllimport__)) size_t __attribute__((__cdecl__)) _fwrite_nolock(const void * __restrict__ _DstBuf,size_t _Size,size_t _Count,FILE * __restrict__ _File);
  __attribute__ ((__dllimport__)) int __attribute__((__cdecl__)) _ungetc_nolock(int _Ch,FILE *_File);





  char *__attribute__((__cdecl__)) tempnam(const char *_Directory,const char *_FilePrefix) ;
  int __attribute__((__cdecl__)) fcloseall(void) ;
  FILE *__attribute__((__cdecl__)) fdopen(int _FileHandle,const char *_Format) ;
  int __attribute__((__cdecl__)) fgetchar(void) ;
  int __attribute__((__cdecl__)) fileno(FILE *_File) ;
  int __attribute__((__cdecl__)) flushall(void) ;
  int __attribute__((__cdecl__)) fputchar(int _Ch) ;
  int __attribute__((__cdecl__)) getw(FILE *_File) ;
  int __attribute__((__cdecl__)) putw(int _Ch,FILE *_File) ;
  int __attribute__((__cdecl__)) rmtmp(void) ;
# 926 "C:/TDM-GCC-64/x86_64-w64-mingw32/include/stdio.h" 3
int __attribute__((__cdecl__)) __mingw_str_wide_utf8 (const wchar_t * const wptr, char **mbptr, size_t * buflen);
# 940 "C:/TDM-GCC-64/x86_64-w64-mingw32/include/stdio.h" 3
int __attribute__((__cdecl__)) __mingw_str_utf8_wide (const char *const mbptr, wchar_t ** wptr, size_t * buflen);
# 949 "C:/TDM-GCC-64/x86_64-w64-mingw32/include/stdio.h" 3
void __attribute__((__cdecl__)) __mingw_str_free(void *ptr);





  __attribute__ ((__dllimport__)) intptr_t __attribute__((__cdecl__)) _wspawnl(int _Mode,const wchar_t *_Filename,const wchar_t *_ArgList,...);
  __attribute__ ((__dllimport__)) intptr_t __attribute__((__cdecl__)) _wspawnle(int _Mode,const wchar_t *_Filename,const wchar_t *_ArgList,...);
  __attribute__ ((__dllimport__)) intptr_t __attribute__((__cdecl__)) _wspawnlp(int _Mode,const wchar_t *_Filename,const wchar_t *_ArgList,...);
  __attribute__ ((__dllimport__)) intptr_t __attribute__((__cdecl__)) _wspawnlpe(int _Mode,const wchar_t *_Filename,const wchar_t *_ArgList,...);
  __attribute__ ((__dllimport__)) intptr_t __attribute__((__cdecl__)) _wspawnv(int _Mode,const wchar_t *_Filename,const wchar_t *const *_ArgList);
  __attribute__ ((__dllimport__)) intptr_t __attribute__((__cdecl__)) _wspawnve(int _Mode,const wchar_t *_Filename,const wchar_t *const *_ArgList,const wchar_t *const *_Env);
  __attribute__ ((__dllimport__)) intptr_t __attribute__((__cdecl__)) _wspawnvp(int _Mode,const wchar_t *_Filename,const wchar_t *const *_ArgList);
  __attribute__ ((__dllimport__)) intptr_t __attribute__((__cdecl__)) _wspawnvpe(int _Mode,const wchar_t *_Filename,const wchar_t *const *_ArgList,const wchar_t *const *_Env);
# 979 "C:/TDM-GCC-64/x86_64-w64-mingw32/include/stdio.h" 3
  __attribute__ ((__dllimport__)) intptr_t __attribute__((__cdecl__)) _spawnv(int _Mode,const char *_Filename,const char *const *_ArgList);
  __attribute__ ((__dllimport__)) intptr_t __attribute__((__cdecl__)) _spawnve(int _Mode,const char *_Filename,const char *const *_ArgList,const char *const *_Env);
  __attribute__ ((__dllimport__)) intptr_t __attribute__((__cdecl__)) _spawnvp(int _Mode,const char *_Filename,const char *const *_ArgList);
  __attribute__ ((__dllimport__)) intptr_t __attribute__((__cdecl__)) _spawnvpe(int _Mode,const char *_Filename,const char *const *_ArgList,const char *const *_Env);






#pragma pack(pop)

# 1 "C:/TDM-GCC-64/x86_64-w64-mingw32/include/sec_api/stdio_s.h" 1 3
# 9 "C:/TDM-GCC-64/x86_64-w64-mingw32/include/sec_api/stdio_s.h" 3
# 1 "C:/TDM-GCC-64/x86_64-w64-mingw32/include/stdio.h" 1 3
# 10 "C:/TDM-GCC-64/x86_64-w64-mingw32/include/sec_api/stdio_s.h" 2 3
# 992 "C:/TDM-GCC-64/x86_64-w64-mingw32/include/stdio.h" 2 3

# 1 "C:/TDM-GCC-64/x86_64-w64-mingw32/include/_mingw_print_pop.h" 1 3
# 994 "C:/TDM-GCC-64/x86_64-w64-mingw32/include/stdio.h" 2 3
# 2 "main.c" 2



# 4 "main.c"
int main(int argc, char **argv)
{
 printf("\n");

 int incre = 0;
 int arrayIn[] = {0,10,5,8,2};
 int tailleArrayIn = sizeof(arrayIn)/sizeof(arrayIn[0]);
 int *arrayOut;
 int tailleArrayOut;

 arrayOut = analyzeArray(arrayIn, tailleArrayIn);
 tailleArrayOut = sizeof(arrayOut)/sizeof(arrayOut[0]);
 printf("testtttttttt");

 printf(" max : %d \n",arrayOut[0]);
 printf(" min : %d \n",arrayOut[1]);
 printf(" moy : %d \n",arrayOut[2]);
 printf(" tailleArrayOut : %d \n",tailleArrayOut);

 printf("\n");

 free(arrayOut);

 return 0;
}
