# 1 "mcc_generated_files/tmr1.c"
# 1 "<built-in>" 1
# 1 "<built-in>" 3
# 288 "<built-in>" 3
# 1 "<command line>" 1
# 1 "<built-in>" 2
# 1 "C:\\Program Files (x86)\\Microchip\\xc8\\v2.10\\pic\\include\\language_support.h" 1 3
# 2 "<built-in>" 2
# 1 "mcc_generated_files/tmr1.c" 2
# 51 "mcc_generated_files/tmr1.c"
# 1 "C:\\Program Files (x86)\\Microchip\\xc8\\v2.10\\pic\\include\\xc.h" 1 3
# 18 "C:\\Program Files (x86)\\Microchip\\xc8\\v2.10\\pic\\include\\xc.h" 3
extern const char __xc8_OPTIM_SPEED;

extern double __fpnormalize(double);



# 1 "C:\\Program Files (x86)\\Microchip\\xc8\\v2.10\\pic\\include\\c99\\xc8debug.h" 1 3



# 1 "C:\\Program Files (x86)\\Microchip\\xc8\\v2.10\\pic\\include\\c99\\stdlib.h" 1 3



# 1 "C:\\Program Files (x86)\\Microchip\\xc8\\v2.10\\pic\\include\\c99\\musl_xc8.h" 1 3
# 4 "C:\\Program Files (x86)\\Microchip\\xc8\\v2.10\\pic\\include\\c99\\stdlib.h" 2 3






# 1 "C:\\Program Files (x86)\\Microchip\\xc8\\v2.10\\pic\\include\\c99\\features.h" 1 3
# 10 "C:\\Program Files (x86)\\Microchip\\xc8\\v2.10\\pic\\include\\c99\\stdlib.h" 2 3
# 21 "C:\\Program Files (x86)\\Microchip\\xc8\\v2.10\\pic\\include\\c99\\stdlib.h" 3
# 1 "C:\\Program Files (x86)\\Microchip\\xc8\\v2.10\\pic\\include\\c99\\bits/alltypes.h" 1 3
# 18 "C:\\Program Files (x86)\\Microchip\\xc8\\v2.10\\pic\\include\\c99\\bits/alltypes.h" 3
typedef long int wchar_t;
# 122 "C:\\Program Files (x86)\\Microchip\\xc8\\v2.10\\pic\\include\\c99\\bits/alltypes.h" 3
typedef unsigned size_t;
# 168 "C:\\Program Files (x86)\\Microchip\\xc8\\v2.10\\pic\\include\\c99\\bits/alltypes.h" 3
typedef __int24 int24_t;
# 204 "C:\\Program Files (x86)\\Microchip\\xc8\\v2.10\\pic\\include\\c99\\bits/alltypes.h" 3
typedef __uint24 uint24_t;
# 21 "C:\\Program Files (x86)\\Microchip\\xc8\\v2.10\\pic\\include\\c99\\stdlib.h" 2 3


int atoi (const char *);
long atol (const char *);
long long atoll (const char *);
double atof (const char *);

float strtof (const char *restrict, char **restrict);
double strtod (const char *restrict, char **restrict);
long double strtold (const char *restrict, char **restrict);



long strtol (const char *restrict, char **restrict, int);
unsigned long strtoul (const char *restrict, char **restrict, int);
long long strtoll (const char *restrict, char **restrict, int);
unsigned long long strtoull (const char *restrict, char **restrict, int);

int rand (void);
void srand (unsigned);

          void abort (void);
int atexit (void (*) (void));
          void exit (int);
          void _Exit (int);

void *bsearch (const void *, const void *, size_t, size_t, int (*)(const void *, const void *));

__attribute__((nonreentrant)) void qsort (void *, size_t, size_t, int (*)(const void *, const void *));

int abs (int);
long labs (long);
long long llabs (long long);

typedef struct { int quot, rem; } div_t;
typedef struct { long quot, rem; } ldiv_t;
typedef struct { long long quot, rem; } lldiv_t;

div_t div (int, int);
ldiv_t ldiv (long, long);
lldiv_t lldiv (long long, long long);

typedef struct { unsigned int quot, rem; } udiv_t;
typedef struct { unsigned long quot, rem; } uldiv_t;
udiv_t udiv (unsigned int, unsigned int);
uldiv_t uldiv (unsigned long, unsigned long);





size_t __ctype_get_mb_cur_max(void);
# 4 "C:\\Program Files (x86)\\Microchip\\xc8\\v2.10\\pic\\include\\c99\\xc8debug.h" 2 3








#pragma intrinsic(__builtin_software_breakpoint)
extern void __builtin_software_breakpoint(void);
# 23 "C:\\Program Files (x86)\\Microchip\\xc8\\v2.10\\pic\\include\\xc.h" 2 3




# 1 "C:\\Program Files (x86)\\Microchip\\xc8\\v2.10\\pic\\include\\pic.h" 1 3




# 1 "C:\\Program Files (x86)\\Microchip\\xc8\\v2.10\\pic\\include\\htc.h" 1 3



# 1 "C:\\Program Files (x86)\\Microchip\\xc8\\v2.10\\pic\\include\\xc.h" 1 3
# 4 "C:\\Program Files (x86)\\Microchip\\xc8\\v2.10\\pic\\include\\htc.h" 2 3
# 5 "C:\\Program Files (x86)\\Microchip\\xc8\\v2.10\\pic\\include\\pic.h" 2 3








# 1 "C:\\Program Files (x86)\\Microchip\\xc8\\v2.10\\pic\\include\\pic_chip_select.h" 1 3
# 1509 "C:\\Program Files (x86)\\Microchip\\xc8\\v2.10\\pic\\include\\pic_chip_select.h" 3
# 1 "C:\\Program Files (x86)\\Microchip\\xc8\\v2.10\\pic\\include\\pic16f1518.h" 1 3
# 44 "C:\\Program Files (x86)\\Microchip\\xc8\\v2.10\\pic\\include\\pic16f1518.h" 3
# 1 "C:\\Program Files (x86)\\Microchip\\xc8\\v2.10\\pic\\include\\__at.h" 1 3
# 44 "C:\\Program Files (x86)\\Microchip\\xc8\\v2.10\\pic\\include\\pic16f1518.h" 2 3








extern volatile unsigned char INDF0 __attribute__((address(0x000)));

__asm("INDF0 equ 00h");


typedef union {
    struct {
        unsigned INDF0 :8;
    };
} INDF0bits_t;
extern volatile INDF0bits_t INDF0bits __attribute__((address(0x000)));
# 72 "C:\\Program Files (x86)\\Microchip\\xc8\\v2.10\\pic\\include\\pic16f1518.h" 3
extern volatile unsigned char INDF1 __attribute__((address(0x001)));

__asm("INDF1 equ 01h");


typedef union {
    struct {
        unsigned INDF1 :8;
    };
} INDF1bits_t;
extern volatile INDF1bits_t INDF1bits __attribute__((address(0x001)));
# 92 "C:\\Program Files (x86)\\Microchip\\xc8\\v2.10\\pic\\include\\pic16f1518.h" 3
extern volatile unsigned char PCL __attribute__((address(0x002)));

__asm("PCL equ 02h");


typedef union {
    struct {
        unsigned PCL :8;
    };
} PCLbits_t;
extern volatile PCLbits_t PCLbits __attribute__((address(0x002)));
# 112 "C:\\Program Files (x86)\\Microchip\\xc8\\v2.10\\pic\\include\\pic16f1518.h" 3
extern volatile unsigned char STATUS __attribute__((address(0x003)));

__asm("STATUS equ 03h");


typedef union {
    struct {
        unsigned C :1;
        unsigned DC :1;
        unsigned Z :1;
        unsigned nPD :1;
        unsigned nTO :1;
    };
    struct {
        unsigned CARRY :1;
        unsigned :1;
        unsigned ZERO :1;
    };
} STATUSbits_t;
extern volatile STATUSbits_t STATUSbits __attribute__((address(0x003)));
# 171 "C:\\Program Files (x86)\\Microchip\\xc8\\v2.10\\pic\\include\\pic16f1518.h" 3
extern volatile unsigned short FSR0 __attribute__((address(0x004)));



extern volatile unsigned char FSR0L __attribute__((address(0x004)));

__asm("FSR0L equ 04h");


typedef union {
    struct {
        unsigned FSR0L :8;
    };
} FSR0Lbits_t;
extern volatile FSR0Lbits_t FSR0Lbits __attribute__((address(0x004)));
# 195 "C:\\Program Files (x86)\\Microchip\\xc8\\v2.10\\pic\\include\\pic16f1518.h" 3
extern volatile unsigned char FSR0H __attribute__((address(0x005)));

__asm("FSR0H equ 05h");


typedef union {
    struct {
        unsigned FSR0H :8;
    };
} FSR0Hbits_t;
extern volatile FSR0Hbits_t FSR0Hbits __attribute__((address(0x005)));
# 215 "C:\\Program Files (x86)\\Microchip\\xc8\\v2.10\\pic\\include\\pic16f1518.h" 3
extern volatile unsigned short FSR1 __attribute__((address(0x006)));



extern volatile unsigned char FSR1L __attribute__((address(0x006)));

__asm("FSR1L equ 06h");


typedef union {
    struct {
        unsigned FSR1L :8;
    };
} FSR1Lbits_t;
extern volatile FSR1Lbits_t FSR1Lbits __attribute__((address(0x006)));
# 239 "C:\\Program Files (x86)\\Microchip\\xc8\\v2.10\\pic\\include\\pic16f1518.h" 3
extern volatile unsigned char FSR1H __attribute__((address(0x007)));

__asm("FSR1H equ 07h");


typedef union {
    struct {
        unsigned FSR1H :8;
    };
} FSR1Hbits_t;
extern volatile FSR1Hbits_t FSR1Hbits __attribute__((address(0x007)));
# 259 "C:\\Program Files (x86)\\Microchip\\xc8\\v2.10\\pic\\include\\pic16f1518.h" 3
extern volatile unsigned char BSR __attribute__((address(0x008)));

__asm("BSR equ 08h");


typedef union {
    struct {
        unsigned BSR :5;
    };
    struct {
        unsigned BSR0 :1;
        unsigned BSR1 :1;
        unsigned BSR2 :1;
        unsigned BSR3 :1;
        unsigned BSR4 :1;
    };
} BSRbits_t;
extern volatile BSRbits_t BSRbits __attribute__((address(0x008)));
# 311 "C:\\Program Files (x86)\\Microchip\\xc8\\v2.10\\pic\\include\\pic16f1518.h" 3
extern volatile unsigned char WREG __attribute__((address(0x009)));

__asm("WREG equ 09h");


typedef union {
    struct {
        unsigned WREG0 :8;
    };
} WREGbits_t;
extern volatile WREGbits_t WREGbits __attribute__((address(0x009)));
# 331 "C:\\Program Files (x86)\\Microchip\\xc8\\v2.10\\pic\\include\\pic16f1518.h" 3
extern volatile unsigned char PCLATH __attribute__((address(0x00A)));

__asm("PCLATH equ 0Ah");


typedef union {
    struct {
        unsigned PCLATH :7;
    };
} PCLATHbits_t;
extern volatile PCLATHbits_t PCLATHbits __attribute__((address(0x00A)));
# 351 "C:\\Program Files (x86)\\Microchip\\xc8\\v2.10\\pic\\include\\pic16f1518.h" 3
extern volatile unsigned char INTCON __attribute__((address(0x00B)));

__asm("INTCON equ 0Bh");


typedef union {
    struct {
        unsigned IOCIF :1;
        unsigned INTF :1;
        unsigned TMR0IF :1;
        unsigned IOCIE :1;
        unsigned INTE :1;
        unsigned TMR0IE :1;
        unsigned PEIE :1;
        unsigned GIE :1;
    };
    struct {
        unsigned :2;
        unsigned T0IF :1;
        unsigned :2;
        unsigned T0IE :1;
    };
} INTCONbits_t;
extern volatile INTCONbits_t INTCONbits __attribute__((address(0x00B)));
# 429 "C:\\Program Files (x86)\\Microchip\\xc8\\v2.10\\pic\\include\\pic16f1518.h" 3
extern volatile unsigned char PORTA __attribute__((address(0x00C)));

__asm("PORTA equ 0Ch");


typedef union {
    struct {
        unsigned RA0 :1;
        unsigned RA1 :1;
        unsigned RA2 :1;
        unsigned RA3 :1;
        unsigned RA4 :1;
        unsigned RA5 :1;
        unsigned RA6 :1;
        unsigned RA7 :1;
    };
} PORTAbits_t;
extern volatile PORTAbits_t PORTAbits __attribute__((address(0x00C)));
# 491 "C:\\Program Files (x86)\\Microchip\\xc8\\v2.10\\pic\\include\\pic16f1518.h" 3
extern volatile unsigned char PORTB __attribute__((address(0x00D)));

__asm("PORTB equ 0Dh");


typedef union {
    struct {
        unsigned RB0 :1;
        unsigned RB1 :1;
        unsigned RB2 :1;
        unsigned RB3 :1;
        unsigned RB4 :1;
        unsigned RB5 :1;
        unsigned RB6 :1;
        unsigned RB7 :1;
    };
} PORTBbits_t;
extern volatile PORTBbits_t PORTBbits __attribute__((address(0x00D)));
# 553 "C:\\Program Files (x86)\\Microchip\\xc8\\v2.10\\pic\\include\\pic16f1518.h" 3
extern volatile unsigned char PORTC __attribute__((address(0x00E)));

__asm("PORTC equ 0Eh");


typedef union {
    struct {
        unsigned RC0 :1;
        unsigned RC1 :1;
        unsigned RC2 :1;
        unsigned RC3 :1;
        unsigned RC4 :1;
        unsigned RC5 :1;
        unsigned RC6 :1;
        unsigned RC7 :1;
    };
} PORTCbits_t;
extern volatile PORTCbits_t PORTCbits __attribute__((address(0x00E)));
# 615 "C:\\Program Files (x86)\\Microchip\\xc8\\v2.10\\pic\\include\\pic16f1518.h" 3
extern volatile unsigned char PORTE __attribute__((address(0x010)));

__asm("PORTE equ 010h");


typedef union {
    struct {
        unsigned :3;
        unsigned RE3 :1;
    };
} PORTEbits_t;
extern volatile PORTEbits_t PORTEbits __attribute__((address(0x010)));
# 636 "C:\\Program Files (x86)\\Microchip\\xc8\\v2.10\\pic\\include\\pic16f1518.h" 3
extern volatile unsigned char PIR1 __attribute__((address(0x011)));

__asm("PIR1 equ 011h");


typedef union {
    struct {
        unsigned TMR1IF :1;
        unsigned TMR2IF :1;
        unsigned CCP1IF :1;
        unsigned SSPIF :1;
        unsigned TXIF :1;
        unsigned RCIF :1;
        unsigned ADIF :1;
        unsigned TMR1GIF :1;
    };
} PIR1bits_t;
extern volatile PIR1bits_t PIR1bits __attribute__((address(0x011)));
# 698 "C:\\Program Files (x86)\\Microchip\\xc8\\v2.10\\pic\\include\\pic16f1518.h" 3
extern volatile unsigned char PIR2 __attribute__((address(0x012)));

__asm("PIR2 equ 012h");


typedef union {
    struct {
        unsigned CCP2IF :1;
        unsigned :2;
        unsigned BCLIF :1;
        unsigned :3;
        unsigned OSFIF :1;
    };
} PIR2bits_t;
extern volatile PIR2bits_t PIR2bits __attribute__((address(0x012)));
# 732 "C:\\Program Files (x86)\\Microchip\\xc8\\v2.10\\pic\\include\\pic16f1518.h" 3
extern volatile unsigned char TMR0 __attribute__((address(0x015)));

__asm("TMR0 equ 015h");


typedef union {
    struct {
        unsigned TMR0 :8;
    };
} TMR0bits_t;
extern volatile TMR0bits_t TMR0bits __attribute__((address(0x015)));
# 752 "C:\\Program Files (x86)\\Microchip\\xc8\\v2.10\\pic\\include\\pic16f1518.h" 3
extern volatile unsigned short TMR1 __attribute__((address(0x016)));

__asm("TMR1 equ 016h");




extern volatile unsigned char TMR1L __attribute__((address(0x016)));

__asm("TMR1L equ 016h");


typedef union {
    struct {
        unsigned TMR1L :8;
    };
} TMR1Lbits_t;
extern volatile TMR1Lbits_t TMR1Lbits __attribute__((address(0x016)));
# 779 "C:\\Program Files (x86)\\Microchip\\xc8\\v2.10\\pic\\include\\pic16f1518.h" 3
extern volatile unsigned char TMR1H __attribute__((address(0x017)));

__asm("TMR1H equ 017h");


typedef union {
    struct {
        unsigned TMR1H :8;
    };
} TMR1Hbits_t;
extern volatile TMR1Hbits_t TMR1Hbits __attribute__((address(0x017)));
# 799 "C:\\Program Files (x86)\\Microchip\\xc8\\v2.10\\pic\\include\\pic16f1518.h" 3
extern volatile unsigned char T1CON __attribute__((address(0x018)));

__asm("T1CON equ 018h");


typedef union {
    struct {
        unsigned TMR1ON :1;
        unsigned :1;
        unsigned nT1SYNC :1;
        unsigned T1OSCEN :1;
        unsigned T1CKPS :2;
        unsigned TMR1CS :2;
    };
    struct {
        unsigned :4;
        unsigned T1CKPS0 :1;
        unsigned T1CKPS1 :1;
        unsigned TMR1CS0 :1;
        unsigned TMR1CS1 :1;
    };
} T1CONbits_t;
extern volatile T1CONbits_t T1CONbits __attribute__((address(0x018)));
# 871 "C:\\Program Files (x86)\\Microchip\\xc8\\v2.10\\pic\\include\\pic16f1518.h" 3
extern volatile unsigned char T1GCON __attribute__((address(0x019)));

__asm("T1GCON equ 019h");


typedef union {
    struct {
        unsigned T1GSS :2;
        unsigned T1GVAL :1;
        unsigned T1GGO_nDONE :1;
        unsigned T1GSPM :1;
        unsigned T1GTM :1;
        unsigned T1GPOL :1;
        unsigned TMR1GE :1;
    };
    struct {
        unsigned T1GSS0 :1;
        unsigned T1GSS1 :1;
    };
} T1GCONbits_t;
extern volatile T1GCONbits_t T1GCONbits __attribute__((address(0x019)));
# 941 "C:\\Program Files (x86)\\Microchip\\xc8\\v2.10\\pic\\include\\pic16f1518.h" 3
extern volatile unsigned char TMR2 __attribute__((address(0x01A)));

__asm("TMR2 equ 01Ah");


typedef union {
    struct {
        unsigned TMR2 :8;
    };
} TMR2bits_t;
extern volatile TMR2bits_t TMR2bits __attribute__((address(0x01A)));
# 961 "C:\\Program Files (x86)\\Microchip\\xc8\\v2.10\\pic\\include\\pic16f1518.h" 3
extern volatile unsigned char PR2 __attribute__((address(0x01B)));

__asm("PR2 equ 01Bh");


typedef union {
    struct {
        unsigned PR2 :8;
    };
} PR2bits_t;
extern volatile PR2bits_t PR2bits __attribute__((address(0x01B)));
# 981 "C:\\Program Files (x86)\\Microchip\\xc8\\v2.10\\pic\\include\\pic16f1518.h" 3
extern volatile unsigned char T2CON __attribute__((address(0x01C)));

__asm("T2CON equ 01Ch");


typedef union {
    struct {
        unsigned T2CKPS :2;
        unsigned TMR2ON :1;
        unsigned T2OUTPS :4;
    };
    struct {
        unsigned T2CKPS0 :1;
        unsigned T2CKPS1 :1;
        unsigned :1;
        unsigned T2OUTPS0 :1;
        unsigned T2OUTPS1 :1;
        unsigned T2OUTPS2 :1;
        unsigned T2OUTPS3 :1;
    };
} T2CONbits_t;
extern volatile T2CONbits_t T2CONbits __attribute__((address(0x01C)));
# 1052 "C:\\Program Files (x86)\\Microchip\\xc8\\v2.10\\pic\\include\\pic16f1518.h" 3
extern volatile unsigned char TRISA __attribute__((address(0x08C)));

__asm("TRISA equ 08Ch");


typedef union {
    struct {
        unsigned TRISA0 :1;
        unsigned TRISA1 :1;
        unsigned TRISA2 :1;
        unsigned TRISA3 :1;
        unsigned TRISA4 :1;
        unsigned TRISA5 :1;
        unsigned TRISA6 :1;
        unsigned TRISA7 :1;
    };
} TRISAbits_t;
extern volatile TRISAbits_t TRISAbits __attribute__((address(0x08C)));
# 1114 "C:\\Program Files (x86)\\Microchip\\xc8\\v2.10\\pic\\include\\pic16f1518.h" 3
extern volatile unsigned char TRISB __attribute__((address(0x08D)));

__asm("TRISB equ 08Dh");


typedef union {
    struct {
        unsigned TRISB0 :1;
        unsigned TRISB1 :1;
        unsigned TRISB2 :1;
        unsigned TRISB3 :1;
        unsigned TRISB4 :1;
        unsigned TRISB5 :1;
        unsigned TRISB6 :1;
        unsigned TRISB7 :1;
    };
} TRISBbits_t;
extern volatile TRISBbits_t TRISBbits __attribute__((address(0x08D)));
# 1176 "C:\\Program Files (x86)\\Microchip\\xc8\\v2.10\\pic\\include\\pic16f1518.h" 3
extern volatile unsigned char TRISC __attribute__((address(0x08E)));

__asm("TRISC equ 08Eh");


typedef union {
    struct {
        unsigned TRISC0 :1;
        unsigned TRISC1 :1;
        unsigned TRISC2 :1;
        unsigned TRISC3 :1;
        unsigned TRISC4 :1;
        unsigned TRISC5 :1;
        unsigned TRISC6 :1;
        unsigned TRISC7 :1;
    };
} TRISCbits_t;
extern volatile TRISCbits_t TRISCbits __attribute__((address(0x08E)));
# 1238 "C:\\Program Files (x86)\\Microchip\\xc8\\v2.10\\pic\\include\\pic16f1518.h" 3
extern volatile unsigned char TRISE __attribute__((address(0x090)));

__asm("TRISE equ 090h");




extern volatile unsigned char PIE1 __attribute__((address(0x091)));

__asm("PIE1 equ 091h");


typedef union {
    struct {
        unsigned TMR1IE :1;
        unsigned TMR2IE :1;
        unsigned CCP1IE :1;
        unsigned SSPIE :1;
        unsigned TXIE :1;
        unsigned RCIE :1;
        unsigned ADIE :1;
        unsigned TMR1GIE :1;
    };
} PIE1bits_t;
extern volatile PIE1bits_t PIE1bits __attribute__((address(0x091)));
# 1307 "C:\\Program Files (x86)\\Microchip\\xc8\\v2.10\\pic\\include\\pic16f1518.h" 3
extern volatile unsigned char PIE2 __attribute__((address(0x092)));

__asm("PIE2 equ 092h");


typedef union {
    struct {
        unsigned CCP2IE :1;
        unsigned :2;
        unsigned BCLIE :1;
        unsigned :3;
        unsigned OSFIE :1;
    };
} PIE2bits_t;
extern volatile PIE2bits_t PIE2bits __attribute__((address(0x092)));
# 1341 "C:\\Program Files (x86)\\Microchip\\xc8\\v2.10\\pic\\include\\pic16f1518.h" 3
extern volatile unsigned char OPTION_REG __attribute__((address(0x095)));

__asm("OPTION_REG equ 095h");


typedef union {
    struct {
        unsigned PS :3;
        unsigned PSA :1;
        unsigned TMR0SE :1;
        unsigned TMR0CS :1;
        unsigned INTEDG :1;
        unsigned nWPUEN :1;
    };
    struct {
        unsigned PS0 :1;
        unsigned PS1 :1;
        unsigned PS2 :1;
        unsigned :1;
        unsigned T0SE :1;
        unsigned T0CS :1;
    };
} OPTION_REGbits_t;
extern volatile OPTION_REGbits_t OPTION_REGbits __attribute__((address(0x095)));
# 1424 "C:\\Program Files (x86)\\Microchip\\xc8\\v2.10\\pic\\include\\pic16f1518.h" 3
extern volatile unsigned char PCON __attribute__((address(0x096)));

__asm("PCON equ 096h");


typedef union {
    struct {
        unsigned nBOR :1;
        unsigned nPOR :1;
        unsigned nRI :1;
        unsigned nRMCLR :1;
        unsigned nRWDT :1;
        unsigned :1;
        unsigned STKUNF :1;
        unsigned STKOVF :1;
    };
} PCONbits_t;
extern volatile PCONbits_t PCONbits __attribute__((address(0x096)));
# 1481 "C:\\Program Files (x86)\\Microchip\\xc8\\v2.10\\pic\\include\\pic16f1518.h" 3
extern volatile unsigned char WDTCON __attribute__((address(0x097)));

__asm("WDTCON equ 097h");


typedef union {
    struct {
        unsigned SWDTEN :1;
        unsigned WDTPS :5;
    };
    struct {
        unsigned :1;
        unsigned WDTPS0 :1;
        unsigned WDTPS1 :1;
        unsigned WDTPS2 :1;
        unsigned WDTPS3 :1;
        unsigned WDTPS4 :1;
    };
} WDTCONbits_t;
extern volatile WDTCONbits_t WDTCONbits __attribute__((address(0x097)));
# 1540 "C:\\Program Files (x86)\\Microchip\\xc8\\v2.10\\pic\\include\\pic16f1518.h" 3
extern volatile unsigned char OSCCON __attribute__((address(0x099)));

__asm("OSCCON equ 099h");


typedef union {
    struct {
        unsigned SCS :2;
        unsigned :1;
        unsigned IRCF :4;
    };
    struct {
        unsigned SCS0 :1;
        unsigned SCS1 :1;
        unsigned :1;
        unsigned IRCF0 :1;
        unsigned IRCF1 :1;
        unsigned IRCF2 :1;
        unsigned IRCF3 :1;
    };
} OSCCONbits_t;
extern volatile OSCCONbits_t OSCCONbits __attribute__((address(0x099)));
# 1606 "C:\\Program Files (x86)\\Microchip\\xc8\\v2.10\\pic\\include\\pic16f1518.h" 3
extern volatile unsigned char OSCSTAT __attribute__((address(0x09A)));

__asm("OSCSTAT equ 09Ah");


typedef union {
    struct {
        unsigned HFIOFS :1;
        unsigned LFIOFR :1;
        unsigned :2;
        unsigned HFIOFR :1;
        unsigned OSTS :1;
        unsigned :1;
        unsigned SOSCR :1;
    };
    struct {
        unsigned :7;
        unsigned T1OSCR :1;
    };
} OSCSTATbits_t;
extern volatile OSCSTATbits_t OSCSTATbits __attribute__((address(0x09A)));
# 1661 "C:\\Program Files (x86)\\Microchip\\xc8\\v2.10\\pic\\include\\pic16f1518.h" 3
extern volatile unsigned short ADRES __attribute__((address(0x09B)));

__asm("ADRES equ 09Bh");




extern volatile unsigned char ADRESL __attribute__((address(0x09B)));

__asm("ADRESL equ 09Bh");


typedef union {
    struct {
        unsigned ADRESL :8;
    };
} ADRESLbits_t;
extern volatile ADRESLbits_t ADRESLbits __attribute__((address(0x09B)));
# 1688 "C:\\Program Files (x86)\\Microchip\\xc8\\v2.10\\pic\\include\\pic16f1518.h" 3
extern volatile unsigned char ADRESH __attribute__((address(0x09C)));

__asm("ADRESH equ 09Ch");


typedef union {
    struct {
        unsigned ADRESH :8;
    };
} ADRESHbits_t;
extern volatile ADRESHbits_t ADRESHbits __attribute__((address(0x09C)));
# 1708 "C:\\Program Files (x86)\\Microchip\\xc8\\v2.10\\pic\\include\\pic16f1518.h" 3
extern volatile unsigned char ADCON0 __attribute__((address(0x09D)));

__asm("ADCON0 equ 09Dh");


typedef union {
    struct {
        unsigned ADON :1;
        unsigned GO_nDONE :1;
        unsigned CHS :5;
    };
    struct {
        unsigned :1;
        unsigned ADGO :1;
        unsigned CHS0 :1;
        unsigned CHS1 :1;
        unsigned CHS2 :1;
        unsigned CHS3 :1;
        unsigned CHS4 :1;
    };
    struct {
        unsigned :1;
        unsigned GO :1;
    };
} ADCON0bits_t;
extern volatile ADCON0bits_t ADCON0bits __attribute__((address(0x09D)));
# 1788 "C:\\Program Files (x86)\\Microchip\\xc8\\v2.10\\pic\\include\\pic16f1518.h" 3
extern volatile unsigned char ADCON1 __attribute__((address(0x09E)));

__asm("ADCON1 equ 09Eh");


typedef union {
    struct {
        unsigned ADPREF :2;
        unsigned :2;
        unsigned ADCS :3;
        unsigned ADFM :1;
    };
    struct {
        unsigned ADPREF0 :1;
        unsigned ADPREF1 :1;
        unsigned :2;
        unsigned ADCS0 :1;
        unsigned ADCS1 :1;
        unsigned ADCS2 :1;
    };
} ADCON1bits_t;
extern volatile ADCON1bits_t ADCON1bits __attribute__((address(0x09E)));
# 1854 "C:\\Program Files (x86)\\Microchip\\xc8\\v2.10\\pic\\include\\pic16f1518.h" 3
extern volatile unsigned char LATA __attribute__((address(0x10C)));

__asm("LATA equ 010Ch");


typedef union {
    struct {
        unsigned LATA0 :1;
        unsigned LATA1 :1;
        unsigned LATA2 :1;
        unsigned LATA3 :1;
        unsigned LATA4 :1;
        unsigned LATA5 :1;
        unsigned LATA6 :1;
        unsigned LATA7 :1;
    };
} LATAbits_t;
extern volatile LATAbits_t LATAbits __attribute__((address(0x10C)));
# 1916 "C:\\Program Files (x86)\\Microchip\\xc8\\v2.10\\pic\\include\\pic16f1518.h" 3
extern volatile unsigned char LATB __attribute__((address(0x10D)));

__asm("LATB equ 010Dh");


typedef union {
    struct {
        unsigned LATB0 :1;
        unsigned LATB1 :1;
        unsigned LATB2 :1;
        unsigned LATB3 :1;
        unsigned LATB4 :1;
        unsigned LATB5 :1;
        unsigned LATB6 :1;
        unsigned LATB7 :1;
    };
} LATBbits_t;
extern volatile LATBbits_t LATBbits __attribute__((address(0x10D)));
# 1978 "C:\\Program Files (x86)\\Microchip\\xc8\\v2.10\\pic\\include\\pic16f1518.h" 3
extern volatile unsigned char LATC __attribute__((address(0x10E)));

__asm("LATC equ 010Eh");


typedef union {
    struct {
        unsigned LATC0 :1;
        unsigned LATC1 :1;
        unsigned LATC2 :1;
        unsigned LATC3 :1;
        unsigned LATC4 :1;
        unsigned LATC5 :1;
        unsigned LATC6 :1;
        unsigned LATC7 :1;
    };
} LATCbits_t;
extern volatile LATCbits_t LATCbits __attribute__((address(0x10E)));
# 2040 "C:\\Program Files (x86)\\Microchip\\xc8\\v2.10\\pic\\include\\pic16f1518.h" 3
extern volatile unsigned char BORCON __attribute__((address(0x116)));

__asm("BORCON equ 0116h");


typedef union {
    struct {
        unsigned BORRDY :1;
        unsigned :5;
        unsigned BORFS :1;
        unsigned SBOREN :1;
    };
} BORCONbits_t;
extern volatile BORCONbits_t BORCONbits __attribute__((address(0x116)));
# 2073 "C:\\Program Files (x86)\\Microchip\\xc8\\v2.10\\pic\\include\\pic16f1518.h" 3
extern volatile unsigned char FVRCON __attribute__((address(0x117)));

__asm("FVRCON equ 0117h");


typedef union {
    struct {
        unsigned ADFVR :2;
        unsigned :2;
        unsigned TSRNG :1;
        unsigned TSEN :1;
        unsigned FVRRDY :1;
        unsigned FVREN :1;
    };
    struct {
        unsigned ADFVR0 :1;
        unsigned ADFVR1 :1;
    };
} FVRCONbits_t;
extern volatile FVRCONbits_t FVRCONbits __attribute__((address(0x117)));
# 2132 "C:\\Program Files (x86)\\Microchip\\xc8\\v2.10\\pic\\include\\pic16f1518.h" 3
extern volatile unsigned char APFCON __attribute__((address(0x11D)));

__asm("APFCON equ 011Dh");


typedef union {
    struct {
        unsigned CCP2SEL :1;
        unsigned SSSEL :1;
    };
} APFCONbits_t;
extern volatile APFCONbits_t APFCONbits __attribute__((address(0x11D)));
# 2158 "C:\\Program Files (x86)\\Microchip\\xc8\\v2.10\\pic\\include\\pic16f1518.h" 3
extern volatile unsigned char ANSELA __attribute__((address(0x18C)));

__asm("ANSELA equ 018Ch");


typedef union {
    struct {
        unsigned ANSA0 :1;
        unsigned ANSA1 :1;
        unsigned ANSA2 :1;
        unsigned ANSA3 :1;
        unsigned :1;
        unsigned ANSA5 :1;
    };
    struct {
        unsigned ANSELA :6;
    };
} ANSELAbits_t;
extern volatile ANSELAbits_t ANSELAbits __attribute__((address(0x18C)));
# 2211 "C:\\Program Files (x86)\\Microchip\\xc8\\v2.10\\pic\\include\\pic16f1518.h" 3
extern volatile unsigned char ANSELB __attribute__((address(0x18D)));

__asm("ANSELB equ 018Dh");


typedef union {
    struct {
        unsigned ANSB0 :1;
        unsigned ANSB1 :1;
        unsigned ANSB2 :1;
        unsigned ANSB3 :1;
        unsigned ANSB4 :1;
        unsigned ANSB5 :1;
    };
    struct {
        unsigned ANSELB :6;
    };
} ANSELBbits_t;
extern volatile ANSELBbits_t ANSELBbits __attribute__((address(0x18D)));
# 2269 "C:\\Program Files (x86)\\Microchip\\xc8\\v2.10\\pic\\include\\pic16f1518.h" 3
extern volatile unsigned char ANSELC __attribute__((address(0x18E)));

__asm("ANSELC equ 018Eh");


typedef union {
    struct {
        unsigned ANSC0 :1;
        unsigned ANSC1 :1;
        unsigned ANSC2 :1;
        unsigned ANSC3 :1;
        unsigned ANSC4 :1;
        unsigned ANSC5 :1;
        unsigned ANSC6 :1;
        unsigned ANSC7 :1;
    };
} ANSELCbits_t;
extern volatile ANSELCbits_t ANSELCbits __attribute__((address(0x18E)));
# 2331 "C:\\Program Files (x86)\\Microchip\\xc8\\v2.10\\pic\\include\\pic16f1518.h" 3
extern volatile unsigned short PMADR __attribute__((address(0x191)));

__asm("PMADR equ 0191h");




extern volatile unsigned char PMADRL __attribute__((address(0x191)));

__asm("PMADRL equ 0191h");


typedef union {
    struct {
        unsigned PMADRL :8;
    };
} PMADRLbits_t;
extern volatile PMADRLbits_t PMADRLbits __attribute__((address(0x191)));
# 2358 "C:\\Program Files (x86)\\Microchip\\xc8\\v2.10\\pic\\include\\pic16f1518.h" 3
extern volatile unsigned char PMADRH __attribute__((address(0x192)));

__asm("PMADRH equ 0192h");


typedef union {
    struct {
        unsigned PMADRH :7;
    };
} PMADRHbits_t;
extern volatile PMADRHbits_t PMADRHbits __attribute__((address(0x192)));
# 2378 "C:\\Program Files (x86)\\Microchip\\xc8\\v2.10\\pic\\include\\pic16f1518.h" 3
extern volatile unsigned short PMDAT __attribute__((address(0x193)));

__asm("PMDAT equ 0193h");




extern volatile unsigned char PMDATL __attribute__((address(0x193)));

__asm("PMDATL equ 0193h");


typedef union {
    struct {
        unsigned PMDATL :8;
    };
} PMDATLbits_t;
extern volatile PMDATLbits_t PMDATLbits __attribute__((address(0x193)));
# 2405 "C:\\Program Files (x86)\\Microchip\\xc8\\v2.10\\pic\\include\\pic16f1518.h" 3
extern volatile unsigned char PMDATH __attribute__((address(0x194)));

__asm("PMDATH equ 0194h");


typedef union {
    struct {
        unsigned PMDATH :6;
    };
} PMDATHbits_t;
extern volatile PMDATHbits_t PMDATHbits __attribute__((address(0x194)));
# 2425 "C:\\Program Files (x86)\\Microchip\\xc8\\v2.10\\pic\\include\\pic16f1518.h" 3
extern volatile unsigned char PMCON1 __attribute__((address(0x195)));

__asm("PMCON1 equ 0195h");


typedef union {
    struct {
        unsigned RD :1;
        unsigned WR :1;
        unsigned WREN :1;
        unsigned WRERR :1;
        unsigned FREE :1;
        unsigned LWLO :1;
        unsigned CFGS :1;
    };
} PMCON1bits_t;
extern volatile PMCON1bits_t PMCON1bits __attribute__((address(0x195)));
# 2481 "C:\\Program Files (x86)\\Microchip\\xc8\\v2.10\\pic\\include\\pic16f1518.h" 3
extern volatile unsigned char PMCON2 __attribute__((address(0x196)));

__asm("PMCON2 equ 0196h");


typedef union {
    struct {
        unsigned PMCON2 :8;
    };
} PMCON2bits_t;
extern volatile PMCON2bits_t PMCON2bits __attribute__((address(0x196)));
# 2501 "C:\\Program Files (x86)\\Microchip\\xc8\\v2.10\\pic\\include\\pic16f1518.h" 3
extern volatile unsigned char VREGCON __attribute__((address(0x197)));

__asm("VREGCON equ 0197h");


typedef union {
    struct {
        unsigned :1;
        unsigned VREGPM :1;
    };
} VREGCONbits_t;
extern volatile VREGCONbits_t VREGCONbits __attribute__((address(0x197)));
# 2522 "C:\\Program Files (x86)\\Microchip\\xc8\\v2.10\\pic\\include\\pic16f1518.h" 3
extern volatile unsigned char RCREG __attribute__((address(0x199)));

__asm("RCREG equ 0199h");


typedef union {
    struct {
        unsigned RCREG :8;
    };
} RCREGbits_t;
extern volatile RCREGbits_t RCREGbits __attribute__((address(0x199)));
# 2542 "C:\\Program Files (x86)\\Microchip\\xc8\\v2.10\\pic\\include\\pic16f1518.h" 3
extern volatile unsigned char TXREG __attribute__((address(0x19A)));

__asm("TXREG equ 019Ah");


typedef union {
    struct {
        unsigned TXREG :8;
    };
} TXREGbits_t;
extern volatile TXREGbits_t TXREGbits __attribute__((address(0x19A)));
# 2562 "C:\\Program Files (x86)\\Microchip\\xc8\\v2.10\\pic\\include\\pic16f1518.h" 3
extern volatile unsigned short SP1BRG __attribute__((address(0x19B)));

__asm("SP1BRG equ 019Bh");




extern volatile unsigned char SP1BRGL __attribute__((address(0x19B)));

__asm("SP1BRGL equ 019Bh");


extern volatile unsigned char SPBRG __attribute__((address(0x19B)));

__asm("SPBRG equ 019Bh");

extern volatile unsigned char SPBRGL __attribute__((address(0x19B)));

__asm("SPBRGL equ 019Bh");


typedef union {
    struct {
        unsigned SPBRGL :8;
    };
} SP1BRGLbits_t;
extern volatile SP1BRGLbits_t SP1BRGLbits __attribute__((address(0x19B)));







typedef union {
    struct {
        unsigned SPBRGL :8;
    };
} SPBRGbits_t;
extern volatile SPBRGbits_t SPBRGbits __attribute__((address(0x19B)));






typedef union {
    struct {
        unsigned SPBRGL :8;
    };
} SPBRGLbits_t;
extern volatile SPBRGLbits_t SPBRGLbits __attribute__((address(0x19B)));
# 2623 "C:\\Program Files (x86)\\Microchip\\xc8\\v2.10\\pic\\include\\pic16f1518.h" 3
extern volatile unsigned char SP1BRGH __attribute__((address(0x19C)));

__asm("SP1BRGH equ 019Ch");


extern volatile unsigned char SPBRGH __attribute__((address(0x19C)));

__asm("SPBRGH equ 019Ch");


typedef union {
    struct {
        unsigned SPBRGH :8;
    };
} SP1BRGHbits_t;
extern volatile SP1BRGHbits_t SP1BRGHbits __attribute__((address(0x19C)));







typedef union {
    struct {
        unsigned SPBRGH :8;
    };
} SPBRGHbits_t;
extern volatile SPBRGHbits_t SPBRGHbits __attribute__((address(0x19C)));
# 2661 "C:\\Program Files (x86)\\Microchip\\xc8\\v2.10\\pic\\include\\pic16f1518.h" 3
extern volatile unsigned char RCSTA __attribute__((address(0x19D)));

__asm("RCSTA equ 019Dh");


typedef union {
    struct {
        unsigned RX9D :1;
        unsigned OERR :1;
        unsigned FERR :1;
        unsigned ADDEN :1;
        unsigned CREN :1;
        unsigned SREN :1;
        unsigned RX9 :1;
        unsigned SPEN :1;
    };
} RCSTAbits_t;
extern volatile RCSTAbits_t RCSTAbits __attribute__((address(0x19D)));
# 2723 "C:\\Program Files (x86)\\Microchip\\xc8\\v2.10\\pic\\include\\pic16f1518.h" 3
extern volatile unsigned char TXSTA __attribute__((address(0x19E)));

__asm("TXSTA equ 019Eh");


typedef union {
    struct {
        unsigned TX9D :1;
        unsigned TRMT :1;
        unsigned BRGH :1;
        unsigned SENDB :1;
        unsigned SYNC :1;
        unsigned TXEN :1;
        unsigned TX9 :1;
        unsigned CSRC :1;
    };
} TXSTAbits_t;
extern volatile TXSTAbits_t TXSTAbits __attribute__((address(0x19E)));
# 2785 "C:\\Program Files (x86)\\Microchip\\xc8\\v2.10\\pic\\include\\pic16f1518.h" 3
extern volatile unsigned char BAUDCON __attribute__((address(0x19F)));

__asm("BAUDCON equ 019Fh");


typedef union {
    struct {
        unsigned ABDEN :1;
        unsigned WUE :1;
        unsigned :1;
        unsigned BRG16 :1;
        unsigned SCKP :1;
        unsigned :1;
        unsigned RCIDL :1;
        unsigned ABDOVF :1;
    };
} BAUDCONbits_t;
extern volatile BAUDCONbits_t BAUDCONbits __attribute__((address(0x19F)));
# 2837 "C:\\Program Files (x86)\\Microchip\\xc8\\v2.10\\pic\\include\\pic16f1518.h" 3
extern volatile unsigned char WPUB __attribute__((address(0x20D)));

__asm("WPUB equ 020Dh");


typedef union {
    struct {
        unsigned WPUB0 :1;
        unsigned WPUB1 :1;
        unsigned WPUB2 :1;
        unsigned WPUB3 :1;
        unsigned WPUB4 :1;
        unsigned WPUB5 :1;
        unsigned WPUB6 :1;
        unsigned WPUB7 :1;
    };
    struct {
        unsigned WPUB :8;
    };
} WPUBbits_t;
extern volatile WPUBbits_t WPUBbits __attribute__((address(0x20D)));
# 2907 "C:\\Program Files (x86)\\Microchip\\xc8\\v2.10\\pic\\include\\pic16f1518.h" 3
extern volatile unsigned char WPUE __attribute__((address(0x210)));

__asm("WPUE equ 0210h");


typedef union {
    struct {
        unsigned :3;
        unsigned WPUE3 :1;
    };
} WPUEbits_t;
extern volatile WPUEbits_t WPUEbits __attribute__((address(0x210)));
# 2928 "C:\\Program Files (x86)\\Microchip\\xc8\\v2.10\\pic\\include\\pic16f1518.h" 3
extern volatile unsigned char SSPBUF __attribute__((address(0x211)));

__asm("SSPBUF equ 0211h");


extern volatile unsigned char SSP1BUF __attribute__((address(0x211)));

__asm("SSP1BUF equ 0211h");


typedef union {
    struct {
        unsigned SSPBUF :8;
    };
} SSPBUFbits_t;
extern volatile SSPBUFbits_t SSPBUFbits __attribute__((address(0x211)));







typedef union {
    struct {
        unsigned SSPBUF :8;
    };
} SSP1BUFbits_t;
extern volatile SSP1BUFbits_t SSP1BUFbits __attribute__((address(0x211)));
# 2966 "C:\\Program Files (x86)\\Microchip\\xc8\\v2.10\\pic\\include\\pic16f1518.h" 3
extern volatile unsigned char SSPADD __attribute__((address(0x212)));

__asm("SSPADD equ 0212h");


extern volatile unsigned char SSP1ADD __attribute__((address(0x212)));

__asm("SSP1ADD equ 0212h");


typedef union {
    struct {
        unsigned SSPADD :8;
    };
} SSPADDbits_t;
extern volatile SSPADDbits_t SSPADDbits __attribute__((address(0x212)));







typedef union {
    struct {
        unsigned SSPADD :8;
    };
} SSP1ADDbits_t;
extern volatile SSP1ADDbits_t SSP1ADDbits __attribute__((address(0x212)));
# 3004 "C:\\Program Files (x86)\\Microchip\\xc8\\v2.10\\pic\\include\\pic16f1518.h" 3
extern volatile unsigned char SSPMSK __attribute__((address(0x213)));

__asm("SSPMSK equ 0213h");


extern volatile unsigned char SSP1MSK __attribute__((address(0x213)));

__asm("SSP1MSK equ 0213h");


typedef union {
    struct {
        unsigned SSPMSK :8;
    };
} SSPMSKbits_t;
extern volatile SSPMSKbits_t SSPMSKbits __attribute__((address(0x213)));







typedef union {
    struct {
        unsigned SSPMSK :8;
    };
} SSP1MSKbits_t;
extern volatile SSP1MSKbits_t SSP1MSKbits __attribute__((address(0x213)));
# 3042 "C:\\Program Files (x86)\\Microchip\\xc8\\v2.10\\pic\\include\\pic16f1518.h" 3
extern volatile unsigned char SSPSTAT __attribute__((address(0x214)));

__asm("SSPSTAT equ 0214h");


extern volatile unsigned char SSP1STAT __attribute__((address(0x214)));

__asm("SSP1STAT equ 0214h");


typedef union {
    struct {
        unsigned BF :1;
        unsigned UA :1;
        unsigned R_nW :1;
        unsigned S :1;
        unsigned P :1;
        unsigned D_nA :1;
        unsigned CKE :1;
        unsigned SMP :1;
    };
} SSPSTATbits_t;
extern volatile SSPSTATbits_t SSPSTATbits __attribute__((address(0x214)));
# 3107 "C:\\Program Files (x86)\\Microchip\\xc8\\v2.10\\pic\\include\\pic16f1518.h" 3
typedef union {
    struct {
        unsigned BF :1;
        unsigned UA :1;
        unsigned R_nW :1;
        unsigned S :1;
        unsigned P :1;
        unsigned D_nA :1;
        unsigned CKE :1;
        unsigned SMP :1;
    };
} SSP1STATbits_t;
extern volatile SSP1STATbits_t SSP1STATbits __attribute__((address(0x214)));
# 3164 "C:\\Program Files (x86)\\Microchip\\xc8\\v2.10\\pic\\include\\pic16f1518.h" 3
extern volatile unsigned char SSPCON1 __attribute__((address(0x215)));

__asm("SSPCON1 equ 0215h");


extern volatile unsigned char SSPCON __attribute__((address(0x215)));

__asm("SSPCON equ 0215h");

extern volatile unsigned char SSP1CON1 __attribute__((address(0x215)));

__asm("SSP1CON1 equ 0215h");


typedef union {
    struct {
        unsigned SSPM :4;
        unsigned CKP :1;
        unsigned SSPEN :1;
        unsigned SSPOV :1;
        unsigned WCOL :1;
    };
    struct {
        unsigned SSPM0 :1;
        unsigned SSPM1 :1;
        unsigned SSPM2 :1;
        unsigned SSPM3 :1;
    };
} SSPCON1bits_t;
extern volatile SSPCON1bits_t SSPCON1bits __attribute__((address(0x215)));
# 3241 "C:\\Program Files (x86)\\Microchip\\xc8\\v2.10\\pic\\include\\pic16f1518.h" 3
typedef union {
    struct {
        unsigned SSPM :4;
        unsigned CKP :1;
        unsigned SSPEN :1;
        unsigned SSPOV :1;
        unsigned WCOL :1;
    };
    struct {
        unsigned SSPM0 :1;
        unsigned SSPM1 :1;
        unsigned SSPM2 :1;
        unsigned SSPM3 :1;
    };
} SSPCONbits_t;
extern volatile SSPCONbits_t SSPCONbits __attribute__((address(0x215)));
# 3303 "C:\\Program Files (x86)\\Microchip\\xc8\\v2.10\\pic\\include\\pic16f1518.h" 3
typedef union {
    struct {
        unsigned SSPM :4;
        unsigned CKP :1;
        unsigned SSPEN :1;
        unsigned SSPOV :1;
        unsigned WCOL :1;
    };
    struct {
        unsigned SSPM0 :1;
        unsigned SSPM1 :1;
        unsigned SSPM2 :1;
        unsigned SSPM3 :1;
    };
} SSP1CON1bits_t;
extern volatile SSP1CON1bits_t SSP1CON1bits __attribute__((address(0x215)));
# 3368 "C:\\Program Files (x86)\\Microchip\\xc8\\v2.10\\pic\\include\\pic16f1518.h" 3
extern volatile unsigned char SSPCON2 __attribute__((address(0x216)));

__asm("SSPCON2 equ 0216h");


extern volatile unsigned char SSP1CON2 __attribute__((address(0x216)));

__asm("SSP1CON2 equ 0216h");


typedef union {
    struct {
        unsigned SEN :1;
        unsigned RSEN :1;
        unsigned PEN :1;
        unsigned RCEN :1;
        unsigned ACKEN :1;
        unsigned ACKDT :1;
        unsigned ACKSTAT :1;
        unsigned GCEN :1;
    };
} SSPCON2bits_t;
extern volatile SSPCON2bits_t SSPCON2bits __attribute__((address(0x216)));
# 3433 "C:\\Program Files (x86)\\Microchip\\xc8\\v2.10\\pic\\include\\pic16f1518.h" 3
typedef union {
    struct {
        unsigned SEN :1;
        unsigned RSEN :1;
        unsigned PEN :1;
        unsigned RCEN :1;
        unsigned ACKEN :1;
        unsigned ACKDT :1;
        unsigned ACKSTAT :1;
        unsigned GCEN :1;
    };
} SSP1CON2bits_t;
extern volatile SSP1CON2bits_t SSP1CON2bits __attribute__((address(0x216)));
# 3490 "C:\\Program Files (x86)\\Microchip\\xc8\\v2.10\\pic\\include\\pic16f1518.h" 3
extern volatile unsigned char SSPCON3 __attribute__((address(0x217)));

__asm("SSPCON3 equ 0217h");


extern volatile unsigned char SSP1CON3 __attribute__((address(0x217)));

__asm("SSP1CON3 equ 0217h");


typedef union {
    struct {
        unsigned DHEN :1;
        unsigned AHEN :1;
        unsigned SBCDE :1;
        unsigned SDAHT :1;
        unsigned BOEN :1;
        unsigned SCIE :1;
        unsigned PCIE :1;
        unsigned ACKTIM :1;
    };
} SSPCON3bits_t;
extern volatile SSPCON3bits_t SSPCON3bits __attribute__((address(0x217)));
# 3555 "C:\\Program Files (x86)\\Microchip\\xc8\\v2.10\\pic\\include\\pic16f1518.h" 3
typedef union {
    struct {
        unsigned DHEN :1;
        unsigned AHEN :1;
        unsigned SBCDE :1;
        unsigned SDAHT :1;
        unsigned BOEN :1;
        unsigned SCIE :1;
        unsigned PCIE :1;
        unsigned ACKTIM :1;
    };
} SSP1CON3bits_t;
extern volatile SSP1CON3bits_t SSP1CON3bits __attribute__((address(0x217)));
# 3612 "C:\\Program Files (x86)\\Microchip\\xc8\\v2.10\\pic\\include\\pic16f1518.h" 3
extern volatile unsigned short CCPR1 __attribute__((address(0x291)));

__asm("CCPR1 equ 0291h");




extern volatile unsigned char CCPR1L __attribute__((address(0x291)));

__asm("CCPR1L equ 0291h");


typedef union {
    struct {
        unsigned CCPR1L :8;
    };
} CCPR1Lbits_t;
extern volatile CCPR1Lbits_t CCPR1Lbits __attribute__((address(0x291)));
# 3639 "C:\\Program Files (x86)\\Microchip\\xc8\\v2.10\\pic\\include\\pic16f1518.h" 3
extern volatile unsigned char CCPR1H __attribute__((address(0x292)));

__asm("CCPR1H equ 0292h");


typedef union {
    struct {
        unsigned CCPR1H :8;
    };
} CCPR1Hbits_t;
extern volatile CCPR1Hbits_t CCPR1Hbits __attribute__((address(0x292)));
# 3659 "C:\\Program Files (x86)\\Microchip\\xc8\\v2.10\\pic\\include\\pic16f1518.h" 3
extern volatile unsigned char CCP1CON __attribute__((address(0x293)));

__asm("CCP1CON equ 0293h");


typedef union {
    struct {
        unsigned CCP1M :4;
        unsigned DC1B :2;
    };
    struct {
        unsigned CCP1M0 :1;
        unsigned CCP1M1 :1;
        unsigned CCP1M2 :1;
        unsigned CCP1M3 :1;
        unsigned DC1B0 :1;
        unsigned DC1B1 :1;
    };
} CCP1CONbits_t;
extern volatile CCP1CONbits_t CCP1CONbits __attribute__((address(0x293)));
# 3723 "C:\\Program Files (x86)\\Microchip\\xc8\\v2.10\\pic\\include\\pic16f1518.h" 3
extern volatile unsigned short CCPR2 __attribute__((address(0x298)));

__asm("CCPR2 equ 0298h");




extern volatile unsigned char CCPR2L __attribute__((address(0x298)));

__asm("CCPR2L equ 0298h");


typedef union {
    struct {
        unsigned CCPR2L :8;
    };
} CCPR2Lbits_t;
extern volatile CCPR2Lbits_t CCPR2Lbits __attribute__((address(0x298)));
# 3750 "C:\\Program Files (x86)\\Microchip\\xc8\\v2.10\\pic\\include\\pic16f1518.h" 3
extern volatile unsigned char CCPR2H __attribute__((address(0x299)));

__asm("CCPR2H equ 0299h");


typedef union {
    struct {
        unsigned CCPR2H :8;
    };
} CCPR2Hbits_t;
extern volatile CCPR2Hbits_t CCPR2Hbits __attribute__((address(0x299)));
# 3770 "C:\\Program Files (x86)\\Microchip\\xc8\\v2.10\\pic\\include\\pic16f1518.h" 3
extern volatile unsigned char CCP2CON __attribute__((address(0x29A)));

__asm("CCP2CON equ 029Ah");


typedef union {
    struct {
        unsigned CCP2M :4;
        unsigned DC2B :2;
    };
    struct {
        unsigned CCP2M0 :1;
        unsigned CCP2M1 :1;
        unsigned CCP2M2 :1;
        unsigned CCP2M3 :1;
        unsigned DC2B0 :1;
        unsigned DC2B1 :1;
    };
} CCP2CONbits_t;
extern volatile CCP2CONbits_t CCP2CONbits __attribute__((address(0x29A)));
# 3834 "C:\\Program Files (x86)\\Microchip\\xc8\\v2.10\\pic\\include\\pic16f1518.h" 3
extern volatile unsigned char IOCBP __attribute__((address(0x394)));

__asm("IOCBP equ 0394h");


typedef union {
    struct {
        unsigned IOCBP0 :1;
        unsigned IOCBP1 :1;
        unsigned IOCBP2 :1;
        unsigned IOCBP3 :1;
        unsigned IOCBP4 :1;
        unsigned IOCBP5 :1;
        unsigned IOCBP6 :1;
        unsigned IOCBP7 :1;
    };
    struct {
        unsigned IOCBP :8;
    };
} IOCBPbits_t;
extern volatile IOCBPbits_t IOCBPbits __attribute__((address(0x394)));
# 3904 "C:\\Program Files (x86)\\Microchip\\xc8\\v2.10\\pic\\include\\pic16f1518.h" 3
extern volatile unsigned char IOCBN __attribute__((address(0x395)));

__asm("IOCBN equ 0395h");


typedef union {
    struct {
        unsigned IOCBN0 :1;
        unsigned IOCBN1 :1;
        unsigned IOCBN2 :1;
        unsigned IOCBN3 :1;
        unsigned IOCBN4 :1;
        unsigned IOCBN5 :1;
        unsigned IOCBN6 :1;
        unsigned IOCBN7 :1;
    };
    struct {
        unsigned IOCBN :8;
    };
} IOCBNbits_t;
extern volatile IOCBNbits_t IOCBNbits __attribute__((address(0x395)));
# 3974 "C:\\Program Files (x86)\\Microchip\\xc8\\v2.10\\pic\\include\\pic16f1518.h" 3
extern volatile unsigned char IOCBF __attribute__((address(0x396)));

__asm("IOCBF equ 0396h");


typedef union {
    struct {
        unsigned IOCBF0 :1;
        unsigned IOCBF1 :1;
        unsigned IOCBF2 :1;
        unsigned IOCBF3 :1;
        unsigned IOCBF4 :1;
        unsigned IOCBF5 :1;
        unsigned IOCBF6 :1;
        unsigned IOCBF7 :1;
    };
    struct {
        unsigned IOCBF :8;
    };
} IOCBFbits_t;
extern volatile IOCBFbits_t IOCBFbits __attribute__((address(0x396)));
# 4044 "C:\\Program Files (x86)\\Microchip\\xc8\\v2.10\\pic\\include\\pic16f1518.h" 3
extern volatile unsigned char STATUS_SHAD __attribute__((address(0xFE4)));

__asm("STATUS_SHAD equ 0FE4h");


typedef union {
    struct {
        unsigned C_SHAD :1;
        unsigned DC_SHAD :1;
        unsigned Z_SHAD :1;
    };
} STATUS_SHADbits_t;
extern volatile STATUS_SHADbits_t STATUS_SHADbits __attribute__((address(0xFE4)));
# 4076 "C:\\Program Files (x86)\\Microchip\\xc8\\v2.10\\pic\\include\\pic16f1518.h" 3
extern volatile unsigned char WREG_SHAD __attribute__((address(0xFE5)));

__asm("WREG_SHAD equ 0FE5h");


typedef union {
    struct {
        unsigned WREG_SHAD :8;
    };
} WREG_SHADbits_t;
extern volatile WREG_SHADbits_t WREG_SHADbits __attribute__((address(0xFE5)));
# 4096 "C:\\Program Files (x86)\\Microchip\\xc8\\v2.10\\pic\\include\\pic16f1518.h" 3
extern volatile unsigned char BSR_SHAD __attribute__((address(0xFE6)));

__asm("BSR_SHAD equ 0FE6h");


typedef union {
    struct {
        unsigned BSR_SHAD :5;
    };
} BSR_SHADbits_t;
extern volatile BSR_SHADbits_t BSR_SHADbits __attribute__((address(0xFE6)));
# 4116 "C:\\Program Files (x86)\\Microchip\\xc8\\v2.10\\pic\\include\\pic16f1518.h" 3
extern volatile unsigned char PCLATH_SHAD __attribute__((address(0xFE7)));

__asm("PCLATH_SHAD equ 0FE7h");


typedef union {
    struct {
        unsigned PCLATH_SHAD :7;
    };
} PCLATH_SHADbits_t;
extern volatile PCLATH_SHADbits_t PCLATH_SHADbits __attribute__((address(0xFE7)));
# 4136 "C:\\Program Files (x86)\\Microchip\\xc8\\v2.10\\pic\\include\\pic16f1518.h" 3
extern volatile unsigned char FSR0L_SHAD __attribute__((address(0xFE8)));

__asm("FSR0L_SHAD equ 0FE8h");


typedef union {
    struct {
        unsigned FSR0L_SHAD :8;
    };
} FSR0L_SHADbits_t;
extern volatile FSR0L_SHADbits_t FSR0L_SHADbits __attribute__((address(0xFE8)));
# 4156 "C:\\Program Files (x86)\\Microchip\\xc8\\v2.10\\pic\\include\\pic16f1518.h" 3
extern volatile unsigned char FSR0H_SHAD __attribute__((address(0xFE9)));

__asm("FSR0H_SHAD equ 0FE9h");


typedef union {
    struct {
        unsigned FSR0H_SHAD :8;
    };
} FSR0H_SHADbits_t;
extern volatile FSR0H_SHADbits_t FSR0H_SHADbits __attribute__((address(0xFE9)));
# 4176 "C:\\Program Files (x86)\\Microchip\\xc8\\v2.10\\pic\\include\\pic16f1518.h" 3
extern volatile unsigned char FSR1L_SHAD __attribute__((address(0xFEA)));

__asm("FSR1L_SHAD equ 0FEAh");


typedef union {
    struct {
        unsigned FSR1L_SHAD :8;
    };
} FSR1L_SHADbits_t;
extern volatile FSR1L_SHADbits_t FSR1L_SHADbits __attribute__((address(0xFEA)));
# 4196 "C:\\Program Files (x86)\\Microchip\\xc8\\v2.10\\pic\\include\\pic16f1518.h" 3
extern volatile unsigned char FSR1H_SHAD __attribute__((address(0xFEB)));

__asm("FSR1H_SHAD equ 0FEBh");


typedef union {
    struct {
        unsigned FSR1H_SHAD :8;
    };
} FSR1H_SHADbits_t;
extern volatile FSR1H_SHADbits_t FSR1H_SHADbits __attribute__((address(0xFEB)));
# 4216 "C:\\Program Files (x86)\\Microchip\\xc8\\v2.10\\pic\\include\\pic16f1518.h" 3
extern volatile unsigned char STKPTR __attribute__((address(0xFED)));

__asm("STKPTR equ 0FEDh");


typedef union {
    struct {
        unsigned STKPTR :5;
    };
} STKPTRbits_t;
extern volatile STKPTRbits_t STKPTRbits __attribute__((address(0xFED)));
# 4236 "C:\\Program Files (x86)\\Microchip\\xc8\\v2.10\\pic\\include\\pic16f1518.h" 3
extern volatile unsigned char TOSL __attribute__((address(0xFEE)));

__asm("TOSL equ 0FEEh");


typedef union {
    struct {
        unsigned TOSL :8;
    };
} TOSLbits_t;
extern volatile TOSLbits_t TOSLbits __attribute__((address(0xFEE)));
# 4256 "C:\\Program Files (x86)\\Microchip\\xc8\\v2.10\\pic\\include\\pic16f1518.h" 3
extern volatile unsigned char TOSH __attribute__((address(0xFEF)));

__asm("TOSH equ 0FEFh");


typedef union {
    struct {
        unsigned TOSH :7;
    };
} TOSHbits_t;
extern volatile TOSHbits_t TOSHbits __attribute__((address(0xFEF)));
# 4282 "C:\\Program Files (x86)\\Microchip\\xc8\\v2.10\\pic\\include\\pic16f1518.h" 3
extern volatile __bit ABDEN __attribute__((address(0xCF8)));


extern volatile __bit ABDOVF __attribute__((address(0xCFF)));


extern volatile __bit ACKDT __attribute__((address(0x10B5)));


extern volatile __bit ACKEN __attribute__((address(0x10B4)));


extern volatile __bit ACKSTAT __attribute__((address(0x10B6)));


extern volatile __bit ACKTIM __attribute__((address(0x10BF)));


extern volatile __bit ADCS0 __attribute__((address(0x4F4)));


extern volatile __bit ADCS1 __attribute__((address(0x4F5)));


extern volatile __bit ADCS2 __attribute__((address(0x4F6)));


extern volatile __bit ADDEN __attribute__((address(0xCEB)));


extern volatile __bit ADFM __attribute__((address(0x4F7)));


extern volatile __bit ADFVR0 __attribute__((address(0x8B8)));


extern volatile __bit ADFVR1 __attribute__((address(0x8B9)));


extern volatile __bit ADGO __attribute__((address(0x4E9)));


extern volatile __bit ADIE __attribute__((address(0x48E)));


extern volatile __bit ADIF __attribute__((address(0x8E)));


extern volatile __bit ADON __attribute__((address(0x4E8)));


extern volatile __bit ADPREF0 __attribute__((address(0x4F0)));


extern volatile __bit ADPREF1 __attribute__((address(0x4F1)));


extern volatile __bit AHEN __attribute__((address(0x10B9)));


extern volatile __bit ANSA0 __attribute__((address(0xC60)));


extern volatile __bit ANSA1 __attribute__((address(0xC61)));


extern volatile __bit ANSA2 __attribute__((address(0xC62)));


extern volatile __bit ANSA3 __attribute__((address(0xC63)));


extern volatile __bit ANSA5 __attribute__((address(0xC65)));


extern volatile __bit ANSB0 __attribute__((address(0xC68)));


extern volatile __bit ANSB1 __attribute__((address(0xC69)));


extern volatile __bit ANSB2 __attribute__((address(0xC6A)));


extern volatile __bit ANSB3 __attribute__((address(0xC6B)));


extern volatile __bit ANSB4 __attribute__((address(0xC6C)));


extern volatile __bit ANSB5 __attribute__((address(0xC6D)));


extern volatile __bit ANSC0 __attribute__((address(0xC70)));


extern volatile __bit ANSC1 __attribute__((address(0xC71)));


extern volatile __bit ANSC2 __attribute__((address(0xC72)));


extern volatile __bit ANSC3 __attribute__((address(0xC73)));


extern volatile __bit ANSC4 __attribute__((address(0xC74)));


extern volatile __bit ANSC5 __attribute__((address(0xC75)));


extern volatile __bit ANSC6 __attribute__((address(0xC76)));


extern volatile __bit ANSC7 __attribute__((address(0xC77)));


extern volatile __bit BCLIE __attribute__((address(0x493)));


extern volatile __bit BCLIF __attribute__((address(0x93)));


extern volatile __bit BF __attribute__((address(0x10A0)));


extern volatile __bit BOEN __attribute__((address(0x10BC)));


extern volatile __bit BORFS __attribute__((address(0x8B6)));


extern volatile __bit BORRDY __attribute__((address(0x8B0)));


extern volatile __bit BRG16 __attribute__((address(0xCFB)));


extern volatile __bit BRGH __attribute__((address(0xCF2)));


extern volatile __bit BSR0 __attribute__((address(0x40)));


extern volatile __bit BSR1 __attribute__((address(0x41)));


extern volatile __bit BSR2 __attribute__((address(0x42)));


extern volatile __bit BSR3 __attribute__((address(0x43)));


extern volatile __bit BSR4 __attribute__((address(0x44)));


extern volatile __bit CARRY __attribute__((address(0x18)));


extern volatile __bit CCP1IE __attribute__((address(0x48A)));


extern volatile __bit CCP1IF __attribute__((address(0x8A)));


extern volatile __bit CCP1M0 __attribute__((address(0x1498)));


extern volatile __bit CCP1M1 __attribute__((address(0x1499)));


extern volatile __bit CCP1M2 __attribute__((address(0x149A)));


extern volatile __bit CCP1M3 __attribute__((address(0x149B)));


extern volatile __bit CCP2IE __attribute__((address(0x490)));


extern volatile __bit CCP2IF __attribute__((address(0x90)));


extern volatile __bit CCP2M0 __attribute__((address(0x14D0)));


extern volatile __bit CCP2M1 __attribute__((address(0x14D1)));


extern volatile __bit CCP2M2 __attribute__((address(0x14D2)));


extern volatile __bit CCP2M3 __attribute__((address(0x14D3)));


extern volatile __bit CCP2SEL __attribute__((address(0x8E8)));


extern volatile __bit CFGS __attribute__((address(0xCAE)));


extern volatile __bit CHS0 __attribute__((address(0x4EA)));


extern volatile __bit CHS1 __attribute__((address(0x4EB)));


extern volatile __bit CHS2 __attribute__((address(0x4EC)));


extern volatile __bit CHS3 __attribute__((address(0x4ED)));


extern volatile __bit CHS4 __attribute__((address(0x4EE)));


extern volatile __bit CKE __attribute__((address(0x10A6)));


extern volatile __bit CKP __attribute__((address(0x10AC)));


extern volatile __bit CREN __attribute__((address(0xCEC)));


extern volatile __bit CSRC __attribute__((address(0xCF7)));


extern volatile __bit C_SHAD __attribute__((address(0x7F20)));


extern volatile __bit DC __attribute__((address(0x19)));


extern volatile __bit DC1B0 __attribute__((address(0x149C)));


extern volatile __bit DC1B1 __attribute__((address(0x149D)));


extern volatile __bit DC2B0 __attribute__((address(0x14D4)));


extern volatile __bit DC2B1 __attribute__((address(0x14D5)));


extern volatile __bit DC_SHAD __attribute__((address(0x7F21)));


extern volatile __bit DHEN __attribute__((address(0x10B8)));


extern volatile __bit D_nA __attribute__((address(0x10A5)));


extern volatile __bit FERR __attribute__((address(0xCEA)));


extern volatile __bit FREE __attribute__((address(0xCAC)));


extern volatile __bit FVREN __attribute__((address(0x8BF)));


extern volatile __bit FVRRDY __attribute__((address(0x8BE)));


extern volatile __bit GCEN __attribute__((address(0x10B7)));


extern volatile __bit GIE __attribute__((address(0x5F)));


extern volatile __bit GO __attribute__((address(0x4E9)));


extern volatile __bit GO_nDONE __attribute__((address(0x4E9)));


extern volatile __bit HFIOFR __attribute__((address(0x4D4)));


extern volatile __bit HFIOFS __attribute__((address(0x4D0)));


extern volatile __bit INTE __attribute__((address(0x5C)));


extern volatile __bit INTEDG __attribute__((address(0x4AE)));


extern volatile __bit INTF __attribute__((address(0x59)));


extern volatile __bit IOCBF0 __attribute__((address(0x1CB0)));


extern volatile __bit IOCBF1 __attribute__((address(0x1CB1)));


extern volatile __bit IOCBF2 __attribute__((address(0x1CB2)));


extern volatile __bit IOCBF3 __attribute__((address(0x1CB3)));


extern volatile __bit IOCBF4 __attribute__((address(0x1CB4)));


extern volatile __bit IOCBF5 __attribute__((address(0x1CB5)));


extern volatile __bit IOCBF6 __attribute__((address(0x1CB6)));


extern volatile __bit IOCBF7 __attribute__((address(0x1CB7)));


extern volatile __bit IOCBN0 __attribute__((address(0x1CA8)));


extern volatile __bit IOCBN1 __attribute__((address(0x1CA9)));


extern volatile __bit IOCBN2 __attribute__((address(0x1CAA)));


extern volatile __bit IOCBN3 __attribute__((address(0x1CAB)));


extern volatile __bit IOCBN4 __attribute__((address(0x1CAC)));


extern volatile __bit IOCBN5 __attribute__((address(0x1CAD)));


extern volatile __bit IOCBN6 __attribute__((address(0x1CAE)));


extern volatile __bit IOCBN7 __attribute__((address(0x1CAF)));


extern volatile __bit IOCBP0 __attribute__((address(0x1CA0)));


extern volatile __bit IOCBP1 __attribute__((address(0x1CA1)));


extern volatile __bit IOCBP2 __attribute__((address(0x1CA2)));


extern volatile __bit IOCBP3 __attribute__((address(0x1CA3)));


extern volatile __bit IOCBP4 __attribute__((address(0x1CA4)));


extern volatile __bit IOCBP5 __attribute__((address(0x1CA5)));


extern volatile __bit IOCBP6 __attribute__((address(0x1CA6)));


extern volatile __bit IOCBP7 __attribute__((address(0x1CA7)));


extern volatile __bit IOCIE __attribute__((address(0x5B)));


extern volatile __bit IOCIF __attribute__((address(0x58)));


extern volatile __bit IRCF0 __attribute__((address(0x4CB)));


extern volatile __bit IRCF1 __attribute__((address(0x4CC)));


extern volatile __bit IRCF2 __attribute__((address(0x4CD)));


extern volatile __bit IRCF3 __attribute__((address(0x4CE)));


extern volatile __bit LATA0 __attribute__((address(0x860)));


extern volatile __bit LATA1 __attribute__((address(0x861)));


extern volatile __bit LATA2 __attribute__((address(0x862)));


extern volatile __bit LATA3 __attribute__((address(0x863)));


extern volatile __bit LATA4 __attribute__((address(0x864)));


extern volatile __bit LATA5 __attribute__((address(0x865)));


extern volatile __bit LATA6 __attribute__((address(0x866)));


extern volatile __bit LATA7 __attribute__((address(0x867)));


extern volatile __bit LATB0 __attribute__((address(0x868)));


extern volatile __bit LATB1 __attribute__((address(0x869)));


extern volatile __bit LATB2 __attribute__((address(0x86A)));


extern volatile __bit LATB3 __attribute__((address(0x86B)));


extern volatile __bit LATB4 __attribute__((address(0x86C)));


extern volatile __bit LATB5 __attribute__((address(0x86D)));


extern volatile __bit LATB6 __attribute__((address(0x86E)));


extern volatile __bit LATB7 __attribute__((address(0x86F)));


extern volatile __bit LATC0 __attribute__((address(0x870)));


extern volatile __bit LATC1 __attribute__((address(0x871)));


extern volatile __bit LATC2 __attribute__((address(0x872)));


extern volatile __bit LATC3 __attribute__((address(0x873)));


extern volatile __bit LATC4 __attribute__((address(0x874)));


extern volatile __bit LATC5 __attribute__((address(0x875)));


extern volatile __bit LATC6 __attribute__((address(0x876)));


extern volatile __bit LATC7 __attribute__((address(0x877)));


extern volatile __bit LFIOFR __attribute__((address(0x4D1)));


extern volatile __bit LWLO __attribute__((address(0xCAD)));


extern volatile __bit OERR __attribute__((address(0xCE9)));


extern volatile __bit OSFIE __attribute__((address(0x497)));


extern volatile __bit OSFIF __attribute__((address(0x97)));


extern volatile __bit OSTS __attribute__((address(0x4D5)));


extern volatile __bit PCIE __attribute__((address(0x10BE)));


extern volatile __bit PEIE __attribute__((address(0x5E)));


extern volatile __bit PEN __attribute__((address(0x10B2)));


extern volatile __bit PS0 __attribute__((address(0x4A8)));


extern volatile __bit PS1 __attribute__((address(0x4A9)));


extern volatile __bit PS2 __attribute__((address(0x4AA)));


extern volatile __bit PSA __attribute__((address(0x4AB)));


extern volatile __bit RA0 __attribute__((address(0x60)));


extern volatile __bit RA1 __attribute__((address(0x61)));


extern volatile __bit RA2 __attribute__((address(0x62)));


extern volatile __bit RA3 __attribute__((address(0x63)));


extern volatile __bit RA4 __attribute__((address(0x64)));


extern volatile __bit RA5 __attribute__((address(0x65)));


extern volatile __bit RA6 __attribute__((address(0x66)));


extern volatile __bit RA7 __attribute__((address(0x67)));


extern volatile __bit RB0 __attribute__((address(0x68)));


extern volatile __bit RB1 __attribute__((address(0x69)));


extern volatile __bit RB2 __attribute__((address(0x6A)));


extern volatile __bit RB3 __attribute__((address(0x6B)));


extern volatile __bit RB4 __attribute__((address(0x6C)));


extern volatile __bit RB5 __attribute__((address(0x6D)));


extern volatile __bit RB6 __attribute__((address(0x6E)));


extern volatile __bit RB7 __attribute__((address(0x6F)));


extern volatile __bit RC0 __attribute__((address(0x70)));


extern volatile __bit RC1 __attribute__((address(0x71)));


extern volatile __bit RC2 __attribute__((address(0x72)));


extern volatile __bit RC3 __attribute__((address(0x73)));


extern volatile __bit RC4 __attribute__((address(0x74)));


extern volatile __bit RC5 __attribute__((address(0x75)));


extern volatile __bit RC6 __attribute__((address(0x76)));


extern volatile __bit RC7 __attribute__((address(0x77)));


extern volatile __bit RCEN __attribute__((address(0x10B3)));


extern volatile __bit RCIDL __attribute__((address(0xCFE)));


extern volatile __bit RCIE __attribute__((address(0x48D)));


extern volatile __bit RCIF __attribute__((address(0x8D)));


extern volatile __bit RD __attribute__((address(0xCA8)));


extern volatile __bit RE3 __attribute__((address(0x83)));


extern volatile __bit RSEN __attribute__((address(0x10B1)));


extern volatile __bit RX9 __attribute__((address(0xCEE)));


extern volatile __bit RX9D __attribute__((address(0xCE8)));


extern volatile __bit R_nW __attribute__((address(0x10A2)));


extern volatile __bit SBCDE __attribute__((address(0x10BA)));


extern volatile __bit SBOREN __attribute__((address(0x8B7)));


extern volatile __bit SCIE __attribute__((address(0x10BD)));


extern volatile __bit SCKP __attribute__((address(0xCFC)));


extern volatile __bit SCS0 __attribute__((address(0x4C8)));


extern volatile __bit SCS1 __attribute__((address(0x4C9)));


extern volatile __bit SDAHT __attribute__((address(0x10BB)));


extern volatile __bit SEN __attribute__((address(0x10B0)));


extern volatile __bit SENDB __attribute__((address(0xCF3)));


extern volatile __bit SMP __attribute__((address(0x10A7)));


extern volatile __bit SOSCR __attribute__((address(0x4D7)));


extern volatile __bit SPEN __attribute__((address(0xCEF)));


extern volatile __bit SREN __attribute__((address(0xCED)));


extern volatile __bit SSPEN __attribute__((address(0x10AD)));


extern volatile __bit SSPIE __attribute__((address(0x48B)));


extern volatile __bit SSPIF __attribute__((address(0x8B)));


extern volatile __bit SSPM0 __attribute__((address(0x10A8)));


extern volatile __bit SSPM1 __attribute__((address(0x10A9)));


extern volatile __bit SSPM2 __attribute__((address(0x10AA)));


extern volatile __bit SSPM3 __attribute__((address(0x10AB)));


extern volatile __bit SSPOV __attribute__((address(0x10AE)));


extern volatile __bit SSSEL __attribute__((address(0x8E9)));


extern volatile __bit STKOVF __attribute__((address(0x4B7)));


extern volatile __bit STKUNF __attribute__((address(0x4B6)));


extern volatile __bit SWDTEN __attribute__((address(0x4B8)));


extern volatile __bit SYNC __attribute__((address(0xCF4)));


extern volatile __bit T0CS __attribute__((address(0x4AD)));


extern volatile __bit T0IE __attribute__((address(0x5D)));


extern volatile __bit T0IF __attribute__((address(0x5A)));


extern volatile __bit T0SE __attribute__((address(0x4AC)));


extern volatile __bit T1CKPS0 __attribute__((address(0xC4)));


extern volatile __bit T1CKPS1 __attribute__((address(0xC5)));


extern volatile __bit T1GGO_nDONE __attribute__((address(0xCB)));


extern volatile __bit T1GPOL __attribute__((address(0xCE)));


extern volatile __bit T1GSPM __attribute__((address(0xCC)));


extern volatile __bit T1GSS0 __attribute__((address(0xC8)));


extern volatile __bit T1GSS1 __attribute__((address(0xC9)));


extern volatile __bit T1GTM __attribute__((address(0xCD)));


extern volatile __bit T1GVAL __attribute__((address(0xCA)));


extern volatile __bit T1OSCEN __attribute__((address(0xC3)));


extern volatile __bit T1OSCR __attribute__((address(0x4D7)));


extern volatile __bit T2CKPS0 __attribute__((address(0xE0)));


extern volatile __bit T2CKPS1 __attribute__((address(0xE1)));


extern volatile __bit T2OUTPS0 __attribute__((address(0xE3)));


extern volatile __bit T2OUTPS1 __attribute__((address(0xE4)));


extern volatile __bit T2OUTPS2 __attribute__((address(0xE5)));


extern volatile __bit T2OUTPS3 __attribute__((address(0xE6)));


extern volatile __bit TMR0CS __attribute__((address(0x4AD)));


extern volatile __bit TMR0IE __attribute__((address(0x5D)));


extern volatile __bit TMR0IF __attribute__((address(0x5A)));


extern volatile __bit TMR0SE __attribute__((address(0x4AC)));


extern volatile __bit TMR1CS0 __attribute__((address(0xC6)));


extern volatile __bit TMR1CS1 __attribute__((address(0xC7)));


extern volatile __bit TMR1GE __attribute__((address(0xCF)));


extern volatile __bit TMR1GIE __attribute__((address(0x48F)));


extern volatile __bit TMR1GIF __attribute__((address(0x8F)));


extern volatile __bit TMR1IE __attribute__((address(0x488)));


extern volatile __bit TMR1IF __attribute__((address(0x88)));


extern volatile __bit TMR1ON __attribute__((address(0xC0)));


extern volatile __bit TMR2IE __attribute__((address(0x489)));


extern volatile __bit TMR2IF __attribute__((address(0x89)));


extern volatile __bit TMR2ON __attribute__((address(0xE2)));


extern volatile __bit TRISA0 __attribute__((address(0x460)));


extern volatile __bit TRISA1 __attribute__((address(0x461)));


extern volatile __bit TRISA2 __attribute__((address(0x462)));


extern volatile __bit TRISA3 __attribute__((address(0x463)));


extern volatile __bit TRISA4 __attribute__((address(0x464)));


extern volatile __bit TRISA5 __attribute__((address(0x465)));


extern volatile __bit TRISA6 __attribute__((address(0x466)));


extern volatile __bit TRISA7 __attribute__((address(0x467)));


extern volatile __bit TRISB0 __attribute__((address(0x468)));


extern volatile __bit TRISB1 __attribute__((address(0x469)));


extern volatile __bit TRISB2 __attribute__((address(0x46A)));


extern volatile __bit TRISB3 __attribute__((address(0x46B)));


extern volatile __bit TRISB4 __attribute__((address(0x46C)));


extern volatile __bit TRISB5 __attribute__((address(0x46D)));


extern volatile __bit TRISB6 __attribute__((address(0x46E)));


extern volatile __bit TRISB7 __attribute__((address(0x46F)));


extern volatile __bit TRISC0 __attribute__((address(0x470)));


extern volatile __bit TRISC1 __attribute__((address(0x471)));


extern volatile __bit TRISC2 __attribute__((address(0x472)));


extern volatile __bit TRISC3 __attribute__((address(0x473)));


extern volatile __bit TRISC4 __attribute__((address(0x474)));


extern volatile __bit TRISC5 __attribute__((address(0x475)));


extern volatile __bit TRISC6 __attribute__((address(0x476)));


extern volatile __bit TRISC7 __attribute__((address(0x477)));


extern volatile __bit TRMT __attribute__((address(0xCF1)));


extern volatile __bit TSEN __attribute__((address(0x8BD)));


extern volatile __bit TSRNG __attribute__((address(0x8BC)));


extern volatile __bit TX9 __attribute__((address(0xCF6)));


extern volatile __bit TX9D __attribute__((address(0xCF0)));


extern volatile __bit TXEN __attribute__((address(0xCF5)));


extern volatile __bit TXIE __attribute__((address(0x48C)));


extern volatile __bit TXIF __attribute__((address(0x8C)));


extern volatile __bit UA __attribute__((address(0x10A1)));


extern volatile __bit VREGPM __attribute__((address(0xCB9)));


extern volatile __bit WCOL __attribute__((address(0x10AF)));


extern volatile __bit WDTPS0 __attribute__((address(0x4B9)));


extern volatile __bit WDTPS1 __attribute__((address(0x4BA)));


extern volatile __bit WDTPS2 __attribute__((address(0x4BB)));


extern volatile __bit WDTPS3 __attribute__((address(0x4BC)));


extern volatile __bit WDTPS4 __attribute__((address(0x4BD)));


extern volatile __bit WPUB0 __attribute__((address(0x1068)));


extern volatile __bit WPUB1 __attribute__((address(0x1069)));


extern volatile __bit WPUB2 __attribute__((address(0x106A)));


extern volatile __bit WPUB3 __attribute__((address(0x106B)));


extern volatile __bit WPUB4 __attribute__((address(0x106C)));


extern volatile __bit WPUB5 __attribute__((address(0x106D)));


extern volatile __bit WPUB6 __attribute__((address(0x106E)));


extern volatile __bit WPUB7 __attribute__((address(0x106F)));


extern volatile __bit WPUE3 __attribute__((address(0x1083)));


extern volatile __bit WR __attribute__((address(0xCA9)));


extern volatile __bit WREN __attribute__((address(0xCAA)));


extern volatile __bit WRERR __attribute__((address(0xCAB)));


extern volatile __bit WUE __attribute__((address(0xCF9)));


extern volatile __bit ZERO __attribute__((address(0x1A)));


extern volatile __bit Z_SHAD __attribute__((address(0x7F22)));


extern volatile __bit nBOR __attribute__((address(0x4B0)));


extern volatile __bit nPD __attribute__((address(0x1B)));


extern volatile __bit nPOR __attribute__((address(0x4B1)));


extern volatile __bit nRI __attribute__((address(0x4B2)));


extern volatile __bit nRMCLR __attribute__((address(0x4B3)));


extern volatile __bit nRWDT __attribute__((address(0x4B4)));


extern volatile __bit nT1SYNC __attribute__((address(0xC2)));


extern volatile __bit nTO __attribute__((address(0x1C)));


extern volatile __bit nWPUEN __attribute__((address(0x4AF)));
# 1509 "C:\\Program Files (x86)\\Microchip\\xc8\\v2.10\\pic\\include\\pic_chip_select.h" 2 3
# 13 "C:\\Program Files (x86)\\Microchip\\xc8\\v2.10\\pic\\include\\pic.h" 2 3
# 30 "C:\\Program Files (x86)\\Microchip\\xc8\\v2.10\\pic\\include\\pic.h" 3
#pragma intrinsic(__nop)
extern void __nop(void);
# 78 "C:\\Program Files (x86)\\Microchip\\xc8\\v2.10\\pic\\include\\pic.h" 3
__attribute__((__unsupported__("The " "FLASH_READ" " macro function is no longer supported. Please use the MPLAB X MCC."))) unsigned char __flash_read(unsigned short addr);

__attribute__((__unsupported__("The " "FLASH_WRITE" " macro function is no longer supported. Please use the MPLAB X MCC."))) void __flash_write(unsigned short addr, unsigned short data);

__attribute__((__unsupported__("The " "FLASH_ERASE" " macro function is no longer supported. Please use the MPLAB X MCC."))) void __flash_erase(unsigned short addr);



# 1 "C:\\Program Files (x86)\\Microchip\\xc8\\v2.10\\pic\\include\\eeprom_routines.h" 1 3
# 85 "C:\\Program Files (x86)\\Microchip\\xc8\\v2.10\\pic\\include\\pic.h" 2 3






#pragma intrinsic(_delay)
extern __attribute__((nonreentrant)) void _delay(unsigned long);
#pragma intrinsic(_delaywdt)
extern __attribute__((nonreentrant)) void _delaywdt(unsigned long);

#pragma intrinsic(_delay3)
extern __attribute__((nonreentrant)) void _delay3(unsigned char);
# 137 "C:\\Program Files (x86)\\Microchip\\xc8\\v2.10\\pic\\include\\pic.h" 3
extern __bank0 unsigned char __resetbits;
extern __bank0 __bit __powerdown;
extern __bank0 __bit __timeout;
# 27 "C:\\Program Files (x86)\\Microchip\\xc8\\v2.10\\pic\\include\\xc.h" 2 3
# 51 "mcc_generated_files/tmr1.c" 2

# 1 "mcc_generated_files/tmr1.h" 1
# 54 "mcc_generated_files/tmr1.h"
# 1 "C:\\Program Files (x86)\\Microchip\\xc8\\v2.10\\pic\\include\\c99\\stdbool.h" 1 3
# 54 "mcc_generated_files/tmr1.h" 2

# 1 "C:\\Program Files (x86)\\Microchip\\xc8\\v2.10\\pic\\include\\c99\\stdint.h" 1 3
# 22 "C:\\Program Files (x86)\\Microchip\\xc8\\v2.10\\pic\\include\\c99\\stdint.h" 3
# 1 "C:\\Program Files (x86)\\Microchip\\xc8\\v2.10\\pic\\include\\c99\\bits/alltypes.h" 1 3
# 127 "C:\\Program Files (x86)\\Microchip\\xc8\\v2.10\\pic\\include\\c99\\bits/alltypes.h" 3
typedef unsigned long uintptr_t;
# 142 "C:\\Program Files (x86)\\Microchip\\xc8\\v2.10\\pic\\include\\c99\\bits/alltypes.h" 3
typedef long intptr_t;
# 158 "C:\\Program Files (x86)\\Microchip\\xc8\\v2.10\\pic\\include\\c99\\bits/alltypes.h" 3
typedef signed char int8_t;




typedef short int16_t;
# 173 "C:\\Program Files (x86)\\Microchip\\xc8\\v2.10\\pic\\include\\c99\\bits/alltypes.h" 3
typedef long int32_t;





typedef long long int64_t;
# 188 "C:\\Program Files (x86)\\Microchip\\xc8\\v2.10\\pic\\include\\c99\\bits/alltypes.h" 3
typedef long long intmax_t;





typedef unsigned char uint8_t;




typedef unsigned short uint16_t;
# 209 "C:\\Program Files (x86)\\Microchip\\xc8\\v2.10\\pic\\include\\c99\\bits/alltypes.h" 3
typedef unsigned long uint32_t;





typedef unsigned long long uint64_t;
# 229 "C:\\Program Files (x86)\\Microchip\\xc8\\v2.10\\pic\\include\\c99\\bits/alltypes.h" 3
typedef unsigned long long uintmax_t;
# 22 "C:\\Program Files (x86)\\Microchip\\xc8\\v2.10\\pic\\include\\c99\\stdint.h" 2 3


typedef int8_t int_fast8_t;

typedef int64_t int_fast64_t;


typedef int8_t int_least8_t;
typedef int16_t int_least16_t;

typedef int24_t int_least24_t;

typedef int32_t int_least32_t;

typedef int64_t int_least64_t;


typedef uint8_t uint_fast8_t;

typedef uint64_t uint_fast64_t;


typedef uint8_t uint_least8_t;
typedef uint16_t uint_least16_t;

typedef uint24_t uint_least24_t;

typedef uint32_t uint_least32_t;

typedef uint64_t uint_least64_t;
# 139 "C:\\Program Files (x86)\\Microchip\\xc8\\v2.10\\pic\\include\\c99\\stdint.h" 3
# 1 "C:\\Program Files (x86)\\Microchip\\xc8\\v2.10\\pic\\include\\c99\\bits/stdint.h" 1 3
typedef int32_t int_fast16_t;
typedef int32_t int_fast32_t;
typedef uint32_t uint_fast16_t;
typedef uint32_t uint_fast32_t;
# 139 "C:\\Program Files (x86)\\Microchip\\xc8\\v2.10\\pic\\include\\c99\\stdint.h" 2 3
# 55 "mcc_generated_files/tmr1.h" 2
# 101 "mcc_generated_files/tmr1.h"
void TMR1_Initialize(void);
# 130 "mcc_generated_files/tmr1.h"
void TMR1_StartTimer(void);
# 162 "mcc_generated_files/tmr1.h"
void TMR1_StopTimer(void);
# 197 "mcc_generated_files/tmr1.h"
uint16_t TMR1_ReadTimer(void);
# 236 "mcc_generated_files/tmr1.h"
void TMR1_WriteTimer(uint16_t timerVal);
# 272 "mcc_generated_files/tmr1.h"
void TMR1_Reload(void);
# 311 "mcc_generated_files/tmr1.h"
void TMR1_StartSinglePulseAcquisition(void);
# 350 "mcc_generated_files/tmr1.h"
uint8_t TMR1_CheckGateValueStatus(void);
# 368 "mcc_generated_files/tmr1.h"
void TMR1_ISR(void);
# 385 "mcc_generated_files/tmr1.h"
void TMR1_CallBack(void);
# 403 "mcc_generated_files/tmr1.h"
 void TMR1_SetInterruptHandler(void (* InterruptHandler)(void));
# 421 "mcc_generated_files/tmr1.h"
extern void (*TMR1_InterruptHandler)(void);
# 439 "mcc_generated_files/tmr1.h"
void TMR1_DefaultInterruptHandler(void);
# 52 "mcc_generated_files/tmr1.c" 2

# 1 "mcc_generated_files/../app.h" 1
# 14 "mcc_generated_files/../app.h"
typedef enum
{
    APP_LED_STATE_INIT = 0,
    APP_LED_STATE_WAIT = 1,
    APP_LED_STATE_BLINK_LED = 2
} APP_LED_STATES;

typedef struct
{
    APP_LED_STATES state;
    int TimerCount;
    int id;
}APP_LED_DATA;

extern APP_LED_DATA appledData1, appledData2;

void APP_LED_Initialize(void);
void APP_LED_Tasks(APP_LED_DATA, int);
# 53 "mcc_generated_files/tmr1.c" 2





volatile uint16_t timer1ReloadVal;
void (*TMR1_InterruptHandler)(void);





void TMR1_Initialize(void)
{



    T1GCON = 0x00;


    TMR1H = 0xF0;


    TMR1L = 0x60;


    PIR1bits.TMR1IF = 0;


    timer1ReloadVal=(uint16_t)((TMR1H << 8) | TMR1L);


    PIE1bits.TMR1IE = 1;


    TMR1_SetInterruptHandler(TMR1_DefaultInterruptHandler);


    T1CON = 0x01;
}

void TMR1_StartTimer(void)
{

    T1CONbits.TMR1ON = 1;
}

void TMR1_StopTimer(void)
{

    T1CONbits.TMR1ON = 0;
}

uint16_t TMR1_ReadTimer(void)
{
    uint16_t readVal;
    uint8_t readValHigh;
    uint8_t readValLow;


    readValLow = TMR1L;
    readValHigh = TMR1H;

    readVal = ((uint16_t)readValHigh << 8) | readValLow;

    return readVal;
}

void TMR1_WriteTimer(uint16_t timerVal)
{
    if (T1CONbits.nT1SYNC == 1)
    {

        T1CONbits.TMR1ON = 0;


        TMR1H = (timerVal >> 8);
        TMR1L = timerVal;


        T1CONbits.TMR1ON =1;
    }
    else
    {

        TMR1H = (timerVal >> 8);
        TMR1L = timerVal;
    }
}

void TMR1_Reload(void)
{
    TMR1_WriteTimer(timer1ReloadVal);
}

void TMR1_StartSinglePulseAcquisition(void)
{
    T1GCONbits.T1GGO_nDONE = 1;
}

uint8_t TMR1_CheckGateValueStatus(void)
{
    return (T1GCONbits.T1GVAL);
}

void TMR1_ISR(void)
{


    PIR1bits.TMR1IF = 0;
    TMR1_WriteTimer(timer1ReloadVal);



    TMR1_CallBack();
}

void TMR1_CallBack(void)
{

    appledData1.TimerCount++;
    appledData2.TimerCount++;

    if(TMR1_InterruptHandler)
    {
        TMR1_InterruptHandler();
    }
}

void TMR1_SetInterruptHandler(void (* InterruptHandler)(void)){
    TMR1_InterruptHandler = InterruptHandler;
}

void TMR1_DefaultInterruptHandler(void){


}
