_APP_LED_Tasks2 25 0 CODE 0
__CFG_WRT$OFF 0 0 ABS 0
__S0 8009 0 ABS 0
__S1 7C 0 ABS 0
__S2 0 0 ABS 0
__Hintentry 19 0 CODE 0
__Lintentry 4 0 CODE 0
__size_of_APP_LED_Initialize 0 0 ABS 0
__CFG_BOREN$ON 0 0 ABS 0
__pintentry 4 0 CODE 0
_TMR1_DefaultInterruptHandler 135 0 CODE 0
_LATA 10C 0 ABS 0
_LATB 10D 0 ABS 0
_LATC 10E 0 ABS 0
_WPUB 20D 0 ABS 0
_WPUE 210 0 ABS 0
__end_of_PIN_MANAGER_Initialize B5 0 CODE 0
__end_of_TMR1_Initialize CD 0 CODE 0
_main E2 0 CODE 0
___sp 0 0 STACK 2
btemp 7E 0 ABS 0
start 19 0 CODE 0
_TMR1_WriteTimer F3 0 CODE 0
_TMR1H 17 0 ABS 0
_TMR1L 16 0 ABS 0
_TRISA 8C 0 ABS 0
_TRISB 8D 0 ABS 0
_TRISC 8E 0 ABS 0
reset_vec 0 0 CODE 0
_T1CON 18 0 ABS 0
__size_of_APP_LED_Tasks 0 0 ABS 0
wtemp0 7E 0 ABS 0
__Hconfig 8009 0 CONFIG 0
__Lconfig 8007 0 CONFIG 0
TMR1_WriteTimer@timerVal 76 0 COMMON 1
__Hbigram 0 0 ABS 0
__Lbigram 0 0 ABS 0
__Hram 0 0 ABS 0
__Lram 0 0 ABS 0
__CFG_STVREN$ON 0 0 ABS 0
int$flags 7E 0 ABS 0
__Hfunctab 0 0 ENTRY 0
__Lfunctab 0 0 ENTRY 0
__end_of_WDT_Initialize 135 0 CODE 0
_INTERRUPT_InterruptManager 4 0 CODE 0
__Hcommon 0 0 ABS 0
__Lcommon 0 0 ABS 0
_PIE1bits 91 0 ABS 0
__Heeprom_data 0 0 EEDATA 3
__Leeprom_data 0 0 EEDATA 3
_PIR1bits 11 0 ABS 0
_LATAbits 10C 0 ABS 0
___int_sp 0 0 STACK 2
__CFG_CLKOUTEN$OFF 0 0 ABS 0
_ANSELA 18C 0 ABS 0
_ANSELB 18D 0 ABS 0
_ANSELC 18E 0 ABS 0
_T1GCON 19 0 ABS 0
_APFCON 11D 0 ABS 0
_OSCCON 99 0 ABS 0
__Habs1 0 0 ABS 0
__Labs1 0 0 ABS 0
_BORCON 116 0 ABS 0
_WDTCON 97 0 ABS 0
__Hsfr0 0 0 ABS 0
__Lsfr0 0 0 ABS 0
__Hsfr1 0 0 ABS 0
__Lsfr1 0 0 ABS 0
__Hsfr2 0 0 ABS 0
__Lsfr2 0 0 ABS 0
__Hsfr3 0 0 ABS 0
__Lsfr3 0 0 ABS 0
__Hsfr4 0 0 ABS 0
__Lsfr4 0 0 ABS 0
__Hsfr5 0 0 ABS 0
__Lsfr5 0 0 ABS 0
__Hsfr6 0 0 ABS 0
__Lsfr6 0 0 ABS 0
__Hsfr7 0 0 ABS 0
__Lsfr7 0 0 ABS 0
__Hsfr8 0 0 ABS 0
__Lsfr8 0 0 ABS 0
__Hsfr9 0 0 ABS 0
__Lsfr9 0 0 ABS 0
__end_of_TMR1_SetInterruptHandler 12B 0 CODE 0
__size_of_APP_LED_Tasks2 0 0 ABS 0
___stackhi 23EF 0 ABS 0
__Hcode 0 0 ABS 0
__Lcode 0 0 ABS 0
_APP_LED_Initialize 11E 0 CODE 0
__end_of_APP_LED_Initialize 125 0 CODE 0
__Hinit 19 0 CODE 0
__Linit 19 0 CODE 0
__end_of_main F3 0 CODE 0
__Htext 0 0 ABS 0
__Ltext 0 0 ABS 0
_appledData 73 0 COMMON 1
__CFG_LVP$ON 0 0 ABS 0
end_of_initialization 21 0 CODE 0
__HnvBANK0 0 0 ABS 0
__LnvBANK0 0 0 ABS 0
___stacklo 2002 0 ABS 0
__pnvBANK0 20 0 BANK0 1
__Hsfr10 0 0 ABS 0
__Lsfr10 0 0 ABS 0
__Hsfr20 0 0 ABS 0
__Lsfr20 0 0 ABS 0
__Hsfr30 0 0 ABS 0
__Hsfr11 0 0 ABS 0
__Lsfr30 0 0 ABS 0
__Lsfr11 0 0 ABS 0
__Hsfr21 0 0 ABS 0
__Lsfr21 0 0 ABS 0
__Hsfr31 0 0 ABS 0
__Hsfr12 0 0 ABS 0
__Lsfr31 0 0 ABS 0
__Lsfr12 0 0 ABS 0
__Hsfr22 0 0 ABS 0
__Lsfr22 0 0 ABS 0
__Hsfr13 0 0 ABS 0
__Lsfr13 0 0 ABS 0
__Hsfr23 0 0 ABS 0
__Lsfr23 0 0 ABS 0
__Hsfr14 0 0 ABS 0
__Lsfr14 0 0 ABS 0
__Hsfr24 0 0 ABS 0
__Lsfr24 0 0 ABS 0
__Hsfr15 0 0 ABS 0
__Lsfr15 0 0 ABS 0
__Hsfr25 0 0 ABS 0
__Lsfr25 0 0 ABS 0
__Hsfr16 0 0 ABS 0
__Lsfr16 0 0 ABS 0
__Hsfr26 0 0 ABS 0
__Lsfr26 0 0 ABS 0
__Hsfr17 0 0 ABS 0
__Lsfr17 0 0 ABS 0
__Hsfr27 0 0 ABS 0
__Lsfr27 0 0 ABS 0
__Hsfr18 0 0 ABS 0
__Lsfr18 0 0 ABS 0
__Hsfr28 0 0 ABS 0
__Lsfr28 0 0 ABS 0
__Hsfr19 0 0 ABS 0
__Lsfr19 0 0 ABS 0
__Hsfr29 0 0 ABS 0
__Lsfr29 0 0 ABS 0
__HnvCOMMON 0 0 ABS 0
__LnvCOMMON 0 0 ABS 0
__pnvCOMMON 7A 0 COMMON 1
_T1CONbits 18 0 ABS 0
__Hstrings 0 0 ABS 0
__Lstrings 0 0 ABS 0
__CFG_VCAPEN$OFF 0 0 ABS 0
_SYSTEM_Initialize 104 0 CODE 0
__Hbank0 0 0 ABS 0
__Lbank0 0 0 ABS 0
__Hbank1 0 0 ABS 0
__Lbank1 0 0 ABS 0
__Hbank2 0 0 ABS 0
__Lbank2 0 0 ABS 0
_TMR1_SetInterruptHandler 125 0 CODE 0
__Hbank3 0 0 ABS 0
__Lbank3 0 0 ABS 0
___latbits 3 0 ABS 0
__Hbank4 0 0 ABS 0
__Lbank4 0 0 ABS 0
__Hbank5 0 0 ABS 0
__Lbank5 0 0 ABS 0
__Hpowerup 0 0 CODE 0
__Lpowerup 0 0 CODE 0
__Hbank6 0 0 ABS 0
__Lbank6 0 0 ABS 0
__Hbank7 0 0 ABS 0
__Lbank7 0 0 ABS 0
__Hbank8 0 0 ABS 0
__Lbank8 0 0 ABS 0
__size_of_TMR1_WriteTimer 0 0 ABS 0
__Hbank9 0 0 ABS 0
__Lbank9 0 0 ABS 0
__ptext1 104 0 CODE 0
__ptext2 131 0 CODE 0
__ptext3 B5 0 CODE 0
__ptext4 125 0 CODE 0
__ptext5 9B 0 CODE 0
__ptext6 12B 0 CODE 0
__ptext7 25 0 CODE 0
__ptext8 60 0 CODE 0
__ptext9 11E 0 CODE 0
_appledData2 70 0 COMMON 1
__Hclrtext 0 0 ABS 0
__Lclrtext 0 0 ABS 0
_TMR1_InterruptHandler 20 0 BANK0 1
__end_of__initialization 21 0 CODE 0
__size_of_TMR1_SetInterruptHandler 0 0 ABS 0
_TMR1_Initialize B5 0 CODE 0
__Hidloc 0 0 IDLOC 0
__Lidloc 0 0 IDLOC 0
__Hstack 0 0 STACK 2
__Lstack 0 0 STACK 2
__Hspace_0 8009 0 ABS 0
__Lspace_0 0 0 ABS 0
__end_of_TMR1_DefaultInterruptHandler 136 0 CODE 0
__CFG_IESO$ON 0 0 ABS 0
__Hspace_1 7C 0 ABS 0
__Lspace_1 0 0 ABS 0
__Hspace_2 0 0 ABS 0
__Lspace_2 0 0 ABS 0
__Hcinit 25 0 CODE 0
__Lcinit 1B 0 CODE 0
__Hspace_3 0 0 ABS 0
__Lspace_3 0 0 ABS 0
__size_of_main 0 0 ABS 0
__end_of_INTERRUPT_InterruptManager 19 0 CODE 0
__CFG_BORV$LO 0 0 ABS 0
_PIN_MANAGER_Initialize 9B 0 CODE 0
__end_of_TMR1_CallBack E2 0 CODE 0
__end_of_TMR1_WriteTimer 104 0 CODE 0
__size_of_TMR1_ISR 0 0 ABS 0
__size_of_SYSTEM_Initialize 0 0 ABS 0
__Hbank10 0 0 ABS 0
__Lbank10 0 0 ABS 0
__Hbank20 0 0 BANK20 1
__Lbank20 0 0 BANK20 1
__Hbank30 0 0 BANK30 1
__Hbank11 0 0 ABS 0
__Lbank30 0 0 BANK30 1
__Lbank11 0 0 ABS 0
__Hbank21 0 0 BANK21 1
__Lbank21 0 0 BANK21 1
__end_of_OSCILLATOR_Initialize 131 0 CODE 0
__Hbank31 0 0 BANK31 1
__Hbank12 0 0 ABS 0
__Lbank31 0 0 BANK31 1
__Lbank12 0 0 ABS 0
__end_of_SYSTEM_Initialize 111 0 CODE 0
__Hbank22 0 0 BANK22 1
__Lbank22 0 0 BANK22 1
__Hbank13 0 0 BANK13 1
__Lbank13 0 0 BANK13 1
__Hbank23 0 0 BANK23 1
__Lbank23 0 0 BANK23 1
__Hbank14 0 0 BANK14 1
__Lbank14 0 0 BANK14 1
__Hbank24 0 0 BANK24 1
__Lbank24 0 0 BANK24 1
__Hbank15 0 0 BANK15 1
__Lbank15 0 0 BANK15 1
__Hbank25 0 0 BANK25 1
__Lbank25 0 0 BANK25 1
__ptext11 111 0 CODE 0
__Hbank16 0 0 BANK16 1
__Lbank16 0 0 BANK16 1
__Hbank26 0 0 BANK26 1
__Lbank26 0 0 BANK26 1
_TMR1_CallBack CD 0 CODE 0
__ptext12 F3 0 CODE 0
__Hbank17 0 0 BANK17 1
__Lbank17 0 0 BANK17 1
__size_of_TMR1_DefaultInterruptHandler 0 0 ABS 0
__Hbank27 0 0 BANK27 1
__Lbank27 0 0 BANK27 1
__ptext13 CD 0 CODE 0
__Hbank18 0 0 BANK18 1
__Lbank18 0 0 BANK18 1
__Hbank28 0 0 BANK28 1
__Lbank28 0 0 BANK28 1
__ptext14 135 0 CODE 0
__Hbank19 0 0 BANK19 1
__Lbank19 0 0 BANK19 1
__Hbank29 0 0 BANK29 1
__Lbank29 0 0 BANK29 1
__CFG_PWRTE$OFF 0 0 ABS 0
__HbssCOMMON 0 0 ABS 0
__LbssCOMMON 0 0 ABS 0
__pbssCOMMON 70 0 COMMON 1
_T1GCONbits 19 0 ABS 0
_timer1ReloadVal 7A 0 COMMON 1
_INTCONbits B 0 ABS 0
__Hend_init 1B 0 CODE 0
__Lend_init 19 0 CODE 0
_WDT_Initialize 131 0 CODE 0
__size_of_TMR1_CallBack 0 0 ABS 0
__size_of_TMR1_Initialize 0 0 ABS 0
_OSCILLATOR_Initialize 12B 0 CODE 0
__size_of_INTERRUPT_InterruptManager 0 0 ABS 0
__Hreset_vec 2 0 CODE 0
__Lreset_vec 0 0 CODE 0
__size_of_PIN_MANAGER_Initialize 0 0 ABS 0
_APP_LED_Tasks 60 0 CODE 0
__end_of_APP_LED_Tasks 9B 0 CODE 0
intlevel0 0 0 ENTRY 0
__CFG_WDTE$OFF 0 0 ABS 0
intlevel1 0 0 ENTRY 0
intlevel2 0 0 ENTRY 0
intlevel3 0 0 ENTRY 0
intlevel4 0 0 ENTRY 0
__CFG_LPBOR$OFF 0 0 ABS 0
intlevel5 0 0 ENTRY 0
__size_of_WDT_Initialize 0 0 ABS 0
_TMR1_ISR 111 0 CODE 0
__HcstackCOMMON 0 0 ABS 0
__LcstackCOMMON 0 0 ABS 0
__pcstackCOMMON 76 0 COMMON 1
__end_of_APP_LED_Tasks2 60 0 CODE 0
start_initialization 1B 0 CODE 0
TMR1_SetInterruptHandler@InterruptHandler 78 0 COMMON 1
__end_of_TMR1_ISR 11E 0 CODE 0
__Hmaintext 0 0 ABS 0
__Lmaintext 0 0 ABS 0
__pmaintext E2 0 CODE 0
__CFG_MCLRE$ON 0 0 ABS 0
__size_of_OSCILLATOR_Initialize 0 0 ABS 0
_OPTION_REGbits 95 0 ABS 0
__CFG_FOSC$INTOSC 0 0 ABS 0
__initialization 1B 0 CODE 0
__CFG_CP$OFF 0 0 ABS 0
__CFG_FCMEN$ON 0 0 ABS 0
%segments
reset_vec 0 3 CODE 0 0
intentry 8 26B CODE 8 0
config 1000E 10011 CONFIG 1000E 0
bssCOMMON 70 7B COMMON 70 1
nvBANK0 20 21 BANK0 20 1
%locals
dist/default/production\embedded_system.production.o
C:\Users\195286\AppData\Local\Temp\sa48.s
1324 1B 0 CODE 0
1327 1B 0 CODE 0
1342 1B 0 CODE 0
1343 1C 0 CODE 0
1344 1D 0 CODE 0
1345 1E 0 CODE 0
1346 1F 0 CODE 0
1347 20 0 CODE 0
1353 21 0 CODE 0
1355 21 0 CODE 0
1356 22 0 CODE 0
1357 23 0 CODE 0
main.c
50 E2 0 CODE 0
53 E2 0 CODE 0
54 E5 0 CODE 0
60 E8 0 CODE 0
63 E9 0 CODE 0
74 EA 0 CODE 0
75 ED 0 CODE 0
mcc_generated_files/mcc.c
50 104 0 CODE 0
53 104 0 CODE 0
54 107 0 CODE 0
55 10A 0 CODE 0
56 10D 0 CODE 0
57 110 0 CODE 0
67 131 0 CODE 0
70 131 0 CODE 0
71 134 0 CODE 0
mcc_generated_files/tmr1.c
65 B5 0 CODE 0
70 B5 0 CODE 0
73 B7 0 CODE 0
76 B9 0 CODE 0
79 BB 0 CODE 0
82 BC 0 CODE 0
85 C0 0 CODE 0
88 C2 0 CODE 0
91 C9 0 CODE 0
92 CC 0 CODE 0
182 125 0 CODE 0
183 125 0 CODE 0
184 12A 0 CODE 0
mcc_generated_files/pin_manager.c
55 9B 0 CODE 0
60 9B 0 CODE 0
61 9D 0 CODE 0
62 9E 0 CODE 0
67 9F 0 CODE 0
68 A2 0 CODE 0
69 A4 0 CODE 0
74 A6 0 CODE 0
75 A9 0 CODE 0
76 AB 0 CODE 0
81 AD 0 CODE 0
82 AF 0 CODE 0
83 B0 0 CODE 0
89 B2 0 CODE 0
96 B4 0 CODE 0
mcc_generated_files/mcc.c
59 12B 0 CODE 0
62 12B 0 CODE 0
64 12E 0 CODE 0
65 130 0 CODE 0
./app.c
46 25 0 CODE 0
48 25 0 CODE 0
50 26 0 CODE 0
52 26 0 CODE 0
53 28 0 CODE 0
57 29 0 CODE 0
59 36 0 CODE 0
60 3A 0 CODE 0
66 3D 0 CODE 0
71 4A 0 CODE 0
72 4B 0 CODE 0
74 4C 0 CODE 0
75 5F 0 CODE 0
15 60 0 CODE 0
17 60 0 CODE 0
19 61 0 CODE 0
21 61 0 CODE 0
22 63 0 CODE 0
26 64 0 CODE 0
28 71 0 CODE 0
29 75 0 CODE 0
35 78 0 CODE 0
40 85 0 CODE 0
41 86 0 CODE 0
43 87 0 CODE 0
44 9A 0 CODE 0
7 11E 0 CODE 0
9 11E 0 CODE 0
10 11F 0 CODE 0
11 121 0 CODE 0
12 122 0 CODE 0
13 124 0 CODE 0
mcc_generated_files/interrupt_manager.c
52 4 0 CODE 0
55 6 0 CODE 0
57 A 0 CODE 0
59 14 0 CODE 0
70 17 0 CODE 0
mcc_generated_files/tmr1.c
158 111 0 CODE 0
162 111 0 CODE 0
163 113 0 CODE 0
167 11A 0 CODE 0
168 11D 0 CODE 0
121 F3 0 CODE 0
123 F3 0 CODE 0
126 F8 0 CODE 0
129 F9 0 CODE 0
130 FB 0 CODE 0
133 FD 0 CODE 0
134 FE 0 CODE 0
138 FF 0 CODE 0
139 101 0 CODE 0
141 103 0 CODE 0
170 CD 0 CODE 0
173 CD 0 CODE 0
174 D1 0 CODE 0
176 D5 0 CODE 0
178 DC 0 CODE 0
180 E1 0 CODE 0
186 135 0 CODE 0
189 135 0 CODE 0
