{"valid":true,"data":{"temperature":17.5,"humidity":40.8,"tank":48}}
{"valid":true,"data":{"temperature":18.2,"humidity":40.3,"tank":47}}
{"valid":true,"data":{"temperature":18.9,"humidity":40.6,"tank":42}}
{"valid":true,"data":{"temperature":18.9,"humidity":41,"tank":38}}
{"valid":false}
{"valid":false}
{"valid":true,"data":{"temperature":18.2,"humidity":41.2,"tank":35}}
{"valid":true,"data":{"temperature":18,"humidity":41.7,"tank":32}}
{"valid":false}
{"valid":false}
{"valid":true,"data":{"temperature":17.8,"humidity":41.3,"tank":30}}
{"valid":true,"data":{"temperature":17.7,"humidity":40.5,"tank":49}}
{"valid":true,"data":{"temperature":17.5,"humidity":40.3,"tank":45}}
{"valid":true,"data":{"temperature":18,"humidity":40.8,"tank":48}}
{"valid":true,"data":{"temperature":18.3,"humidity":40.7,"tank":44}}
{"valid":true,"data":{"temperature":17.8,"humidity":40.8,"tank":39}}
{"valid":true,"data":{"temperature":18.1,"humidity":41.2,"tank":36}}
{"valid":false}
{"valid":true,"data":{"temperature":18.8,"humidity":41.6,"tank":33}}
{"valid":true,"data":{"temperature":19.2,"humidity":41.6,"tank":33}}
{"valid":true,"data":{"temperature":19.8,"humidity":41.2,"tank":30}}
{"valid":true,"data":{"temperature":17.8,"humidity":40.8,"tank":45}}
{"valid":true,"data":{"temperature":18.5,"humidity":40.4,"tank":41}}
{"valid":true,"data":{"temperature":19.5,"humidity":40.7,"tank":37}}
{"valid":false}
{"valid":true,"data":{"temperature":17.5,"humidity":39.8,"tank":45}}
{"valid":true,"data":{"temperature":17.2,"humidity":40.3,"tank":41}}
{"valid":true,"data":{"temperature":17,"humidity":40.4,"tank":46}}
{"valid":true,"data":{"temperature":17.3,"humidity":40.1,"tank":41}}
{"valid":false}
{"valid":true,"data":{"temperature":17.4,"humidity":39.7,"tank":40}}
{"valid":true,"data":{"temperature":16.8,"humidity":39.9,"tank":37}}
{"valid":true,"data":{"temperature":17,"humidity":39.8,"tank":34}}
{"valid":true,"data":{"temperature":16.5,"humidity":39.4,"tank":32}}
{"valid":true,"data":{"temperature":15.9,"humidity":39.5,"tank":28}}
{"valid":true,"data":{"temperature":16.9,"humidity":39.6,"tank":23}}
{"valid":true,"data":{"temperature":16.4,"humidity":39.4,"tank":22}}
{"valid":true,"data":{"temperature":16.1,"humidity":39.5,"tank":18}}
{"valid":true,"data":{"temperature":15.4,"humidity":39.5,"tank":18}}
{"valid":true,"data":{"temperature":15.1,"humidity":39.8,"tank":13}}
{"valid":true,"data":{"temperature":14.9,"humidity":39.3,"tank":10}}
{"valid":true,"data":{"temperature":15.2,"humidity":39.7,"tank":5}}
{"valid":true,"data":{"temperature":15.1,"humidity":39.4,"tank":5}}
{"valid":true,"data":{"temperature":14.5,"humidity":38.9,"tank":5}}
{"valid":true,"data":{"temperature":16.5,"humidity":40.1,"tank":48}}
{"valid":true,"data":{"temperature":16.9,"humidity":39.6,"tank":46}}
{"valid":true,"data":{"temperature":16.8,"humidity":39.6,"tank":44}}
{"valid":false}
{"valid":true,"data":{"temperature":17.3,"humidity":39.9,"tank":43}}
{"valid":false}
{"valid":true,"data":{"temperature":18,"humidity":40.4,"tank":42}}
{"valid":true,"data":{"temperature":18.3,"humidity":40,"tank":42}}
{"valid":true,"data":{"temperature":17.9,"humidity":40,"tank":37}}
{"valid":true,"data":{"temperature":17.6,"humidity":40.5,"tank":33}}
{"valid":true,"data":{"temperature":18.3,"humidity":40.7,"tank":31}}
{"valid":true,"data":{"temperature":18.3,"humidity":40.8,"tank":30}}
{"valid":true,"data":{"temperature":16.9,"humidity":40.2,"tank":48}}
{"valid":true,"data":{"temperature":16.7,"humidity":40.5,"tank":46}}
{"valid":true,"data":{"temperature":15.9,"humidity":40,"tank":42}}
{"valid":true,"data":{"temperature":15.8,"humidity":40.1,"tank":42}}
{"valid":true,"data":{"temperature":16.3,"humidity":40.1,"tank":39}}
{"valid":true,"data":{"temperature":16.2,"humidity":40.1,"tank":36}}
{"valid":true,"data":{"temperature":16.9,"humidity":39.7,"tank":34}}
{"valid":true,"data":{"temperature":16.8,"humidity":39.8,"tank":32}}
{"valid":true,"data":{"temperature":16.6,"humidity":40.1,"tank":30}}
