-IC:\TDM-GCC-64\lib\gcc\x86_64-w64-mingw32\5.1.0\include\c++
-IC:\TDM-GCC-64\lib\gcc\x86_64-w64-mingw32\5.1.0\include\c++\x86_64-w64-mingw32
-IC:\TDM-GCC-64\lib\gcc\x86_64-w64-mingw32\5.1.0\include\c++\backward
-IC:\TDM-GCC-64\lib\gcc\x86_64-w64-mingw32\5.1.0\include
-IC:\TDM-GCC-64\include
-IC:\TDM-GCC-64\lib\gcc\x86_64-w64-mingw32\5.1.0\include-fixed
-IC:\TDM-GCC-64\x86_64-w64-mingw32\include
-IC:\Users\195286\Desktop\progra\C\Workspace\coding2
-target
x86_64-pc-windows-gnu
